comprehensive/build/wave2.vcd
$date
	Thu Jan  6 17:31:00 2022
$end
$version
	Icarus Verilog
$end
$timescale
	1s
$end
$scope module top_tb $end
$var wire 1 ! vga_blank_n $end
$var wire 1 " vga_vs $end
$var wire 12 # vga_rgb [11:0] $end
$var wire 1 $ vga_hs $end
$var wire 1 % vga_adv_clk $end
$var wire 1 & o_servo0 $end
$var wire 13 ' o_data [12:0] $end
$var reg 1 ( i_clk $end
$var reg 1 ) i_ps2_data $end
$var reg 1 * i_ps2_sclk $end
$var reg 1 + i_rst_n $end
$var integer 32 , i [31:0] $end
$scope module inst $end
$var wire 1 ( i_clk $end
$var wire 1 ) i_ps2_data $end
$var wire 1 * i_ps2_sclk $end
$var wire 1 + i_rst_n $end
$var wire 1 - replaying $end
$var wire 1 % vga_adv_clk $end
$var wire 1 ! vga_blank_n $end
$var wire 1 . vga_sync_n $end
$var wire 10 / vga_ypos [9:0] $end
$var wire 10 0 vga_xpos [9:0] $end
$var wire 1 " vga_vs $end
$var wire 12 1 vga_rgb [11:0] $end
$var wire 1 $ vga_hs $end
$var wire 12 2 vga_data [11:0] $end
$var wire 5 3 tot_state [4:0] $end
$var wire 13 4 servo3 [12:0] $end
$var wire 13 5 servo2 [12:0] $end
$var wire 13 6 servo1 [12:0] $end
$var wire 1 & o_servo0 $end
$var wire 13 7 o_data [12:0] $end
$var wire 10 8 kb_state [9:0] $end
$var wire 5 9 current_state [4:0] $end
$var wire 1 : clk_vga $end
$scope module data_ctr_ist $end
$var wire 1 ( i_clk $end
$var wire 1 + i_rst_n $end
$var wire 1 - replaying $end
$var wire 10 ; i_keyboard_status [9:0] $end
$var wire 1 < controller_clk $end
$var reg 5 = controller_state [4:0] $end
$var reg 5 > current_state [4:0] $end
$var reg 13 ? servo0 [12:0] $end
$var reg 13 @ servo1 [12:0] $end
$var reg 13 A servo2 [12:0] $end
$var reg 13 B servo3 [12:0] $end
$var reg 5 C tot_state [4:0] $end
$scope module time_generator $end
$var wire 1 ( i_clk $end
$var wire 1 + rst_n $end
$var reg 32 D count [31:0] $end
$var reg 1 < o_clk $end
$var integer 32 E lim [31:0] $end
$upscope $end
$upscope $end
$scope module div_inst $end
$var wire 1 ( clk $end
$var wire 1 F rst $end
$var reg 1 : clk_out $end
$var reg 32 G cnt [31:0] $end
$upscope $end
$scope module kb_controller_inst $end
$var wire 1 ) i_data $end
$var wire 1 + i_rst_n $end
$var wire 1 * i_sclk $end
$var wire 1 H done $end
$var wire 8 I data_out [7:0] $end
$var reg 10 J o_keyboard_status [9:0] $end
$var reg 1 K release_flag $end
$scope module kbdriver $end
$var wire 1 ) i_data $end
$var wire 1 + i_rst_n $end
$var wire 1 * i_sclk $end
$var wire 1 H o_done $end
$var reg 8 L o_frame_data [7:0] $end
$var reg 4 M read_cnt [3:0] $end
$upscope $end
$upscope $end
$scope module servo_driver0 $end
$var wire 13 N data [12:0] $end
$var wire 1 ( i_clk $end
$var wire 1 + i_rst_n $end
$var wire 1 & o_signal $end
$var wire 1 O gen_clk $end
$var reg 13 P counter [12:0] $end
$scope module div_inst $end
$var wire 1 ( i_clk $end
$var wire 1 + rst_n $end
$var reg 32 Q count [31:0] $end
$var reg 1 O o_clk $end
$var integer 32 R lim [31:0] $end
$upscope $end
$upscope $end
$scope module vga_display_inst $end
$var wire 1 : clk $end
$var wire 13 S i_servo_0 [12:0] $end
$var wire 1 + rst_n $end
$var wire 13 T trs_block_x_0 [12:0] $end
$var wire 10 U vga_ypos [9:0] $end
$var wire 10 V vga_xpos [9:0] $end
$var reg 12 W vga_data [11:0] $end
$upscope $end
$scope module vga_driver_inst $end
$var wire 1 : clk_vga $end
$var wire 1 + rst_n $end
$var wire 12 X vga_data [11:0] $end
$var wire 10 Y vga_ypos [9:0] $end
$var wire 10 Z vga_xpos [9:0] $end
$var wire 12 [ vga_rgb [11:0] $end
$var reg 11 \ hcnt [10:0] $end
$var reg 10 ] vcnt [9:0] $end
$var reg 1 $ vga_hs $end
$var reg 1 " vga_vs $end
$upscope $end
$upscope $end
$upscope $end
$enddefinitions $end
#0
$dumpvars
bx ]
bx \
bx [
bx Z
bx Y
bx X
bx W
bx V
bx U
bx T
bx S
b111110100 R
bx Q
bx P
0O
bx N
bx M
bx L
0K
b0 J
bx I
xH
bx G
0F
b10011000100101101000000 E
bx D
bx C
bx B
bx A
bx @
bx ?
bx >
bx =
0<
b0 ;
x:
bx 9
b0 8
bx 7
bx 6
bx 5
bx 4
bx 3
bx 2
bx 1
bx 0
bx /
0.
z-
b0 ,
1+
x*
x)
x(
bx '
x&
x%
x$
bx #
x"
1!
$end
#5
b0 #
b0 1
b0 [
b1 0
b1 V
b1 Z
b0 2
b0 W
b0 X
b0 \
1$
1"
0%
1<
b0 D
1O
b0 Q
1:
1(
#10
1&
0H
1%
b1 /
b1 U
b1 Y
0:
b0 G
b0 I
b0 L
b0 M
b0 ]
b0 =
b0 9
b0 >
b0 3
b0 C
b10010110 4
b10010110 B
b10010110 5
b10010110 A
b10010110 6
b10010110 @
b10010110 T
b10010110 '
b10010110 7
b10010110 ?
b10010110 N
b10010110 S
1F
b0 P
b1 ,
0(
0+
#15
b1 D
b1 Q
b1000000000000000000000000000000 G
0F
1(
1+
#20
b10 ,
0(
#25
b10 Q
b10 D
b10000000000000000000000000000000 G
1(
#30
b11 ,
0(
#35
b10 0
b10 V
b10 Z
b1 \
0%
b11 D
b11 Q
b11000000000000000000000000000000 G
1:
1(
#40
b100 ,
0(
#45
b100 Q
b100 D
b0 G
1(
#50
b101 ,
0(
#55
1%
b101 D
b101 Q
b1000000000000000000000000000000 G
0:
1(
#60
b110 ,
0(
#65
b110 Q
b110 D
b10000000000000000000000000000000 G
1(
#70
b111 ,
0(
#75
b11 0
b11 V
b11 Z
b10 \
0%
b111 D
b111 Q
b11000000000000000000000000000000 G
1:
1(
#80
b1000 ,
0(
#85
b1000 Q
b1000 D
b0 G
1(
#90
b1001 ,
0(
#95
1%
b1001 D
b1001 Q
b1000000000000000000000000000000 G
0:
1(
#100
b1010 ,
0(
#105
b1010 Q
b1010 D
b10000000000000000000000000000000 G
1(
#110
b1011 ,
0(
#115
b100 0
b100 V
b100 Z
b11 \
0%
b1011 D
b1011 Q
b11000000000000000000000000000000 G
1:
1(
#120
b1100 ,
0(
#125
b1100 Q
b1100 D
b0 G
1(
#130
b1101 ,
0(
#135
1%
b1101 D
b1101 Q
b1000000000000000000000000000000 G
0:
1(
#140
b1110 ,
0(
#145
b1110 Q
b1110 D
b10000000000000000000000000000000 G
1(
#150
b1111 ,
0(
#155
b101 0
b101 V
b101 Z
b100 \
0%
b1111 D
b1111 Q
b11000000000000000000000000000000 G
1:
1(
#160
b10000 ,
0(
#165
b10000 Q
b10000 D
b0 G
1(
#170
b10001 ,
0(
#175
1%
b10001 D
b10001 Q
b1000000000000000000000000000000 G
0:
1(
#180
b10010 ,
0(
#185
b10010 Q
b10010 D
b10000000000000000000000000000000 G
1(
#190
b10011 ,
0(
#195
b110 0
b110 V
b110 Z
b101 \
0%
b10011 D
b10011 Q
b11000000000000000000000000000000 G
1:
1(
#200
b10100 ,
0(
#205
b10100 Q
b10100 D
b0 G
1(
#210
b10101 ,
0(
#215
1%
b10101 D
b10101 Q
b1000000000000000000000000000000 G
0:
1(
#220
b10110 ,
0(
#225
b10110 Q
b10110 D
b10000000000000000000000000000000 G
1(
#230
b10111 ,
0(
#235
b111 0
b111 V
b111 Z
b110 \
0%
b10111 D
b10111 Q
b11000000000000000000000000000000 G
1:
1(
#240
b11000 ,
0(
#245
b11000 Q
b11000 D
b0 G
1(
#250
b11001 ,
0(
#255
1%
b11001 D
b11001 Q
b1000000000000000000000000000000 G
0:
1(
#260
b11010 ,
0(
#265
b11010 Q
b11010 D
b10000000000000000000000000000000 G
1(
#270
b11011 ,
0(
#275
b1000 0
b1000 V
b1000 Z
b111 \
0%
b11011 D
b11011 Q
b11000000000000000000000000000000 G
1:
1(
#280
b11100 ,
0(
#285
b11100 Q
b11100 D
b0 G
1(
#290
b11101 ,
0(
#295
1%
b11101 D
b11101 Q
b1000000000000000000000000000000 G
0:
1(
#300
b11110 ,
0(
#305
b11110 Q
b11110 D
b10000000000000000000000000000000 G
1(
#310
b11111 ,
0(
#315
b1001 0
b1001 V
b1001 Z
b1000 \
0%
b11111 D
b11111 Q
b11000000000000000000000000000000 G
1:
1(
#320
b100000 ,
0(
#325
b100000 Q
b100000 D
b0 G
1(
#330
b100001 ,
0(
#335
1%
b100001 D
b100001 Q
b1000000000000000000000000000000 G
0:
1(
#340
b100010 ,
0(
#345
b100010 Q
b100010 D
b10000000000000000000000000000000 G
1(
#350
b100011 ,
0(
#355
b1010 0
b1010 V
b1010 Z
b1001 \
0%
b100011 D
b100011 Q
b11000000000000000000000000000000 G
1:
1(
#360
b100100 ,
0(
#365
b100100 Q
b100100 D
b0 G
1(
#370
b100101 ,
0(
#375
1%
b100101 D
b100101 Q
b1000000000000000000000000000000 G
0:
1(
#380
b100110 ,
0(
#385
b100110 Q
b100110 D
b10000000000000000000000000000000 G
1(
#390
b100111 ,
0(
#395
b1011 0
b1011 V
b1011 Z
b1010 \
0%
b100111 D
b100111 Q
b11000000000000000000000000000000 G
1:
1(
#400
b101000 ,
0(
#405
b101000 Q
b101000 D
b0 G
1(
#410
b101001 ,
0(
#415
1%
b101001 D
b101001 Q
b1000000000000000000000000000000 G
0:
1(
#420
b101010 ,
0(
#425
b101010 Q
b101010 D
b10000000000000000000000000000000 G
1(
#430
b101011 ,
0(
#435
b1100 0
b1100 V
b1100 Z
b1011 \
0%
b101011 D
b101011 Q
b11000000000000000000000000000000 G
1:
1(
#440
b101100 ,
0(
#445
b101100 Q
b101100 D
b0 G
1(
#450
b101101 ,
0(
#455
1%
b101101 D
b101101 Q
b1000000000000000000000000000000 G
0:
1(
#460
b101110 ,
0(
#465
b101110 Q
b101110 D
b10000000000000000000000000000000 G
1(
#470
b101111 ,
0(
#475
b1101 0
b1101 V
b1101 Z
b1100 \
0%
b101111 D
b101111 Q
b11000000000000000000000000000000 G
1:
1(
#480
b110000 ,
0(
#485
b110000 Q
b110000 D
b0 G
1(
#490
b110001 ,
0(
#495
1%
b110001 D
b110001 Q
b1000000000000000000000000000000 G
0:
1(
#500
b110010 ,
0(
#505
b110010 Q
b110010 D
b10000000000000000000000000000000 G
1(
#510
b110011 ,
0(
#515
b1110 0
b1110 V
b1110 Z
b1101 \
0%
b110011 D
b110011 Q
b11000000000000000000000000000000 G
1:
1(
#520
b110100 ,
0(
#525
b110100 Q
b110100 D
b0 G
1(
#530
b110101 ,
0(
#535
1%
b110101 D
b110101 Q
b1000000000000000000000000000000 G
0:
1(
#540
b110110 ,
0(
#545
b110110 Q
b110110 D
b10000000000000000000000000000000 G
1(
#550
b110111 ,
0(
#555
b1111 0
b1111 V
b1111 Z
b1110 \
0%
b110111 D
b110111 Q
b11000000000000000000000000000000 G
1:
1(
#560
b111000 ,
0(
#565
b111000 Q
b111000 D
b0 G
1(
#570
b111001 ,
0(
#575
1%
b111001 D
b111001 Q
b1000000000000000000000000000000 G
0:
1(
#580
b111010 ,
0(
#585
b111010 Q
b111010 D
b10000000000000000000000000000000 G
1(
#590
b111011 ,
0(
#595
b10000 0
b10000 V
b10000 Z
b1111 \
0%
b111011 D
b111011 Q
b11000000000000000000000000000000 G
1:
1(
#600
b111100 ,
0(
#605
b111100 Q
b111100 D
b0 G
1(
#610
b111101 ,
0(
#615
1%
b111101 D
b111101 Q
b1000000000000000000000000000000 G
0:
1(
#620
b111110 ,
0(
#625
b111110 Q
b111110 D
b10000000000000000000000000000000 G
1(
#630
b111111 ,
0(
#635
b10001 0
b10001 V
b10001 Z
b10000 \
0%
b111111 D
b111111 Q
b11000000000000000000000000000000 G
1:
1(
#640
b1000000 ,
0(
#645
b1000000 Q
b1000000 D
b0 G
1(
#650
b1000001 ,
0(
#655
1%
b1000001 D
b1000001 Q
b1000000000000000000000000000000 G
0:
1(
#660
b1000010 ,
0(
#665
b1000010 Q
b1000010 D
b10000000000000000000000000000000 G
1(
#670
b1000011 ,
0(
#675
b10010 0
b10010 V
b10010 Z
b10001 \
0%
b1000011 D
b1000011 Q
b11000000000000000000000000000000 G
1:
1(
#680
b1000100 ,
0(
#685
b1000100 Q
b1000100 D
b0 G
1(
#690
b1000101 ,
0(
#695
1%
b1000101 D
b1000101 Q
b1000000000000000000000000000000 G
0:
1(
#700
b1000110 ,
0(
#705
b1000110 Q
b1000110 D
b10000000000000000000000000000000 G
1(
#710
b1000111 ,
0(
#715
b10011 0
b10011 V
b10011 Z
b10010 \
0%
b1000111 D
b1000111 Q
b11000000000000000000000000000000 G
1:
1(
#720
b1001000 ,
0(
#725
b1001000 Q
b1001000 D
b0 G
1(
#730
b1001001 ,
0(
#735
1%
b1001001 D
b1001001 Q
b1000000000000000000000000000000 G
0:
1(
#740
b1001010 ,
0(
#745
b1001010 Q
b1001010 D
b10000000000000000000000000000000 G
1(
#750
b1001011 ,
0(
#755
b10100 0
b10100 V
b10100 Z
b10011 \
0%
b1001011 D
b1001011 Q
b11000000000000000000000000000000 G
1:
1(
#760
b1001100 ,
0(
#765
b1001100 Q
b1001100 D
b0 G
1(
#770
b1001101 ,
0(
#775
1%
b1001101 D
b1001101 Q
b1000000000000000000000000000000 G
0:
1(
#780
b1001110 ,
0(
#785
b1001110 Q
b1001110 D
b10000000000000000000000000000000 G
1(
#790
b1001111 ,
0(
#795
b10101 0
b10101 V
b10101 Z
b10100 \
0%
b1001111 D
b1001111 Q
b11000000000000000000000000000000 G
1:
1(
#800
b1010000 ,
0(
#805
b1010000 Q
b1010000 D
b0 G
1(
#810
b1010001 ,
0(
#815
1%
b1010001 D
b1010001 Q
b1000000000000000000000000000000 G
0:
1(
#820
b1010010 ,
0(
#825
b1010010 Q
b1010010 D
b10000000000000000000000000000000 G
1(
#830
b1010011 ,
0(
#835
b10110 0
b10110 V
b10110 Z
b10101 \
0%
b1010011 D
b1010011 Q
b11000000000000000000000000000000 G
1:
1(
#840
b1010100 ,
0(
#845
b1010100 Q
b1010100 D
b0 G
1(
#850
b1010101 ,
0(
#855
1%
b1010101 D
b1010101 Q
b1000000000000000000000000000000 G
0:
1(
#860
b1010110 ,
0(
#865
b1010110 Q
b1010110 D
b10000000000000000000000000000000 G
1(
#870
b1010111 ,
0(
#875
b10111 0
b10111 V
b10111 Z
b10110 \
0%
b1010111 D
b1010111 Q
b11000000000000000000000000000000 G
1:
1(
#880
b1011000 ,
0(
#885
b1011000 Q
b1011000 D
b0 G
1(
#890
b1011001 ,
0(
#895
1%
b1011001 D
b1011001 Q
b1000000000000000000000000000000 G
0:
1(
#900
b1011010 ,
0(
#905
b1011010 Q
b1011010 D
b10000000000000000000000000000000 G
1(
#910
b1011011 ,
0(
#915
b11000 0
b11000 V
b11000 Z
b10111 \
0%
b1011011 D
b1011011 Q
b11000000000000000000000000000000 G
1:
1(
#920
b1011100 ,
0(
#925
b1011100 Q
b1011100 D
b0 G
1(
#930
b1011101 ,
0(
#935
1%
b1011101 D
b1011101 Q
b1000000000000000000000000000000 G
0:
1(
#940
b1011110 ,
0(
#945
b1011110 Q
b1011110 D
b10000000000000000000000000000000 G
1(
#950
b1011111 ,
0(
#955
b11001 0
b11001 V
b11001 Z
b11000 \
0%
b1011111 D
b1011111 Q
b11000000000000000000000000000000 G
1:
1(
#960
b1100000 ,
0(
#965
b1100000 Q
b1100000 D
b0 G
1(
#970
b1100001 ,
0(
#975
1%
b1100001 D
b1100001 Q
b1000000000000000000000000000000 G
0:
1(
#980
b1100010 ,
0(
#985
b1100010 Q
b1100010 D
b10000000000000000000000000000000 G
1(
#990
b1100011 ,
0(
#995
b11010 0
b11010 V
b11010 Z
b11001 \
0%
b1100011 D
b1100011 Q
b11000000000000000000000000000000 G
1:
1(
#1000
b1100100 ,
0(
#1005
b1100100 Q
b1100100 D
b0 G
1(
#1010
b1100101 ,
0(
#1015
1%
b1100101 D
b1100101 Q
b1000000000000000000000000000000 G
0:
1(
#1020
b1100110 ,
0(
#1025
b1100110 Q
b1100110 D
b10000000000000000000000000000000 G
1(
#1030
b1100111 ,
0(
#1035
b11011 0
b11011 V
b11011 Z
b11010 \
0%
b1100111 D
b1100111 Q
b11000000000000000000000000000000 G
1:
1(
#1040
b1101000 ,
0(
#1045
b1101000 Q
b1101000 D
b0 G
1(
#1050
b1101001 ,
0(
#1055
1%
b1101001 D
b1101001 Q
b1000000000000000000000000000000 G
0:
1(
#1060
b1101010 ,
0(
#1065
b1101010 Q
b1101010 D
b10000000000000000000000000000000 G
1(
#1070
b1101011 ,
0(
#1075
b11100 0
b11100 V
b11100 Z
b11011 \
0%
b1101011 D
b1101011 Q
b11000000000000000000000000000000 G
1:
1(
#1080
b1101100 ,
0(
#1085
b1101100 Q
b1101100 D
b0 G
1(
#1090
b1101101 ,
0(
#1095
1%
b1101101 D
b1101101 Q
b1000000000000000000000000000000 G
0:
1(
#1100
b1101110 ,
0(
#1105
b1101110 Q
b1101110 D
b10000000000000000000000000000000 G
1(
#1110
b1101111 ,
0(
#1115
b11101 0
b11101 V
b11101 Z
b11100 \
0%
b1101111 D
b1101111 Q
b11000000000000000000000000000000 G
1:
1(
#1120
b1110000 ,
0(
#1125
b1110000 Q
b1110000 D
b0 G
1(
#1130
b1110001 ,
0(
#1135
1%
b1110001 D
b1110001 Q
b1000000000000000000000000000000 G
0:
1(
#1140
b1110010 ,
0(
#1145
b1110010 Q
b1110010 D
b10000000000000000000000000000000 G
1(
#1150
b1110011 ,
0(
#1155
b11110 0
b11110 V
b11110 Z
b11101 \
0%
b1110011 D
b1110011 Q
b11000000000000000000000000000000 G
1:
1(
#1160
b1110100 ,
0(
#1165
b1110100 Q
b1110100 D
b0 G
1(
#1170
b1110101 ,
0(
#1175
1%
b1110101 D
b1110101 Q
b1000000000000000000000000000000 G
0:
1(
#1180
b1110110 ,
0(
#1185
b1110110 Q
b1110110 D
b10000000000000000000000000000000 G
1(
#1190
b1110111 ,
0(
#1195
b11111 0
b11111 V
b11111 Z
b11110 \
0%
b1110111 D
b1110111 Q
b11000000000000000000000000000000 G
1:
1(
#1200
b1111000 ,
0(
#1205
b1111000 Q
b1111000 D
b0 G
1(
#1210
b1111001 ,
0(
#1215
1%
b1111001 D
b1111001 Q
b1000000000000000000000000000000 G
0:
1(
#1220
b1111010 ,
0(
#1225
b1111010 Q
b1111010 D
b10000000000000000000000000000000 G
1(
#1230
b1111011 ,
0(
#1235
b100000 0
b100000 V
b100000 Z
b11111 \
0%
b1111011 D
b1111011 Q
b11000000000000000000000000000000 G
1:
1(
#1240
b1111100 ,
0(
#1245
b1111100 Q
b1111100 D
b0 G
1(
#1250
b1111101 ,
0(
#1255
1%
b1111101 D
b1111101 Q
b1000000000000000000000000000000 G
0:
1(
#1260
b1111110 ,
0(
#1265
b1111110 Q
b1111110 D
b10000000000000000000000000000000 G
1(
#1270
b1111111 ,
0(
#1275
b100001 0
b100001 V
b100001 Z
b100000 \
0%
b1111111 D
b1111111 Q
b11000000000000000000000000000000 G
1:
1(
#1280
b10000000 ,
0(
#1285
b10000000 Q
b10000000 D
b0 G
1(
#1290
b10000001 ,
0(
#1295
1%
b10000001 D
b10000001 Q
b1000000000000000000000000000000 G
0:
1(
#1300
b10000010 ,
0(
#1305
b10000010 Q
b10000010 D
b10000000000000000000000000000000 G
1(
#1310
b10000011 ,
0(
#1315
b100010 0
b100010 V
b100010 Z
b100001 \
0%
b10000011 D
b10000011 Q
b11000000000000000000000000000000 G
1:
1(
#1320
b10000100 ,
0(
#1325
b10000100 Q
b10000100 D
b0 G
1(
#1330
b10000101 ,
0(
#1335
1%
b10000101 D
b10000101 Q
b1000000000000000000000000000000 G
0:
1(
#1340
b10000110 ,
0(
#1345
b10000110 Q
b10000110 D
b10000000000000000000000000000000 G
1(
#1350
b10000111 ,
0(
#1355
b100011 0
b100011 V
b100011 Z
b100010 \
0%
b10000111 D
b10000111 Q
b11000000000000000000000000000000 G
1:
1(
#1360
b10001000 ,
0(
#1365
b10001000 Q
b10001000 D
b0 G
1(
#1370
b10001001 ,
0(
#1375
1%
b10001001 D
b10001001 Q
b1000000000000000000000000000000 G
0:
1(
#1380
b10001010 ,
0(
#1385
b10001010 Q
b10001010 D
b10000000000000000000000000000000 G
1(
#1390
b10001011 ,
0(
#1395
b100100 0
b100100 V
b100100 Z
b100011 \
0%
b10001011 D
b10001011 Q
b11000000000000000000000000000000 G
1:
1(
#1400
b10001100 ,
0(
#1405
b10001100 Q
b10001100 D
b0 G
1(
#1410
b10001101 ,
0(
#1415
1%
b10001101 D
b10001101 Q
b1000000000000000000000000000000 G
0:
1(
#1420
b10001110 ,
0(
#1425
b10001110 Q
b10001110 D
b10000000000000000000000000000000 G
1(
#1430
b10001111 ,
0(
#1435
b100101 0
b100101 V
b100101 Z
b100100 \
0%
b10001111 D
b10001111 Q
b11000000000000000000000000000000 G
1:
1(
#1440
b10010000 ,
0(
#1445
b10010000 Q
b10010000 D
b0 G
1(
#1450
b10010001 ,
0(
#1455
1%
b10010001 D
b10010001 Q
b1000000000000000000000000000000 G
0:
1(
#1460
b10010010 ,
0(
#1465
b10010010 Q
b10010010 D
b10000000000000000000000000000000 G
1(
#1470
b10010011 ,
0(
#1475
b100110 0
b100110 V
b100110 Z
b100101 \
0%
b10010011 D
b10010011 Q
b11000000000000000000000000000000 G
1:
1(
#1480
b10010100 ,
0(
#1485
b10010100 Q
b10010100 D
b0 G
1(
#1490
b10010101 ,
0(
#1495
1%
b10010101 D
b10010101 Q
b1000000000000000000000000000000 G
0:
1(
#1500
b10010110 ,
0(
#1505
b10010110 Q
b10010110 D
b10000000000000000000000000000000 G
1(
#1510
b10010111 ,
0(
#1515
b100111 0
b100111 V
b100111 Z
b100110 \
0%
b10010111 D
b10010111 Q
b11000000000000000000000000000000 G
1:
1(
#1520
b10011000 ,
0(
#1525
b10011000 Q
b10011000 D
b0 G
1(
#1530
b10011001 ,
0(
#1535
1%
b10011001 D
b10011001 Q
b1000000000000000000000000000000 G
0:
1(
#1540
b10011010 ,
0(
#1545
b10011010 Q
b10011010 D
b10000000000000000000000000000000 G
1(
#1550
b10011011 ,
0(
#1555
b101000 0
b101000 V
b101000 Z
b100111 \
0%
b10011011 D
b10011011 Q
b11000000000000000000000000000000 G
1:
1(
#1560
b10011100 ,
0(
#1565
b10011100 Q
b10011100 D
b0 G
1(
#1570
b10011101 ,
0(
#1575
1%
b10011101 D
b10011101 Q
b1000000000000000000000000000000 G
0:
1(
#1580
b10011110 ,
0(
#1585
b10011110 Q
b10011110 D
b10000000000000000000000000000000 G
1(
#1590
b10011111 ,
0(
#1595
b101001 0
b101001 V
b101001 Z
b101000 \
0%
b10011111 D
b10011111 Q
b11000000000000000000000000000000 G
1:
1(
#1600
b10100000 ,
0(
#1605
b10100000 Q
b10100000 D
b0 G
1(
#1610
b10100001 ,
0(
#1615
1%
b10100001 D
b10100001 Q
b1000000000000000000000000000000 G
0:
1(
#1620
b10100010 ,
0(
#1625
b10100010 Q
b10100010 D
b10000000000000000000000000000000 G
1(
#1630
b10100011 ,
0(
#1635
b101010 0
b101010 V
b101010 Z
b101001 \
0%
b10100011 D
b10100011 Q
b11000000000000000000000000000000 G
1:
1(
#1640
b10100100 ,
0(
#1645
b10100100 Q
b10100100 D
b0 G
1(
#1650
b10100101 ,
0(
#1655
1%
b10100101 D
b10100101 Q
b1000000000000000000000000000000 G
0:
1(
#1660
b10100110 ,
0(
#1665
b10100110 Q
b10100110 D
b10000000000000000000000000000000 G
1(
#1670
b10100111 ,
0(
#1675
b101011 0
b101011 V
b101011 Z
b101010 \
0%
b10100111 D
b10100111 Q
b11000000000000000000000000000000 G
1:
1(
#1680
b10101000 ,
0(
#1685
b10101000 Q
b10101000 D
b0 G
1(
#1690
b10101001 ,
0(
#1695
1%
b10101001 D
b10101001 Q
b1000000000000000000000000000000 G
0:
1(
#1700
b10101010 ,
0(
#1705
b10101010 Q
b10101010 D
b10000000000000000000000000000000 G
1(
#1710
b10101011 ,
0(
#1715
b101100 0
b101100 V
b101100 Z
b101011 \
0%
b10101011 D
b10101011 Q
b11000000000000000000000000000000 G
1:
1(
#1720
b10101100 ,
0(
#1725
b10101100 Q
b10101100 D
b0 G
1(
#1730
b10101101 ,
0(
#1735
1%
b10101101 D
b10101101 Q
b1000000000000000000000000000000 G
0:
1(
#1740
b10101110 ,
0(
#1745
b10101110 Q
b10101110 D
b10000000000000000000000000000000 G
1(
#1750
b10101111 ,
0(
#1755
b101101 0
b101101 V
b101101 Z
b101100 \
0%
b10101111 D
b10101111 Q
b11000000000000000000000000000000 G
1:
1(
#1760
b10110000 ,
0(
#1765
b10110000 Q
b10110000 D
b0 G
1(
#1770
b10110001 ,
0(
#1775
1%
b10110001 D
b10110001 Q
b1000000000000000000000000000000 G
0:
1(
#1780
b10110010 ,
0(
#1785
b10110010 Q
b10110010 D
b10000000000000000000000000000000 G
1(
#1790
b10110011 ,
0(
#1795
b101110 0
b101110 V
b101110 Z
b101101 \
0%
b10110011 D
b10110011 Q
b11000000000000000000000000000000 G
1:
1(
#1800
b10110100 ,
0(
#1805
b10110100 Q
b10110100 D
b0 G
1(
#1810
b10110101 ,
0(
#1815
1%
b10110101 D
b10110101 Q
b1000000000000000000000000000000 G
0:
1(
#1820
b10110110 ,
0(
#1825
b10110110 Q
b10110110 D
b10000000000000000000000000000000 G
1(
#1830
b10110111 ,
0(
#1835
b101111 0
b101111 V
b101111 Z
b101110 \
0%
b10110111 D
b10110111 Q
b11000000000000000000000000000000 G
1:
1(
#1840
b10111000 ,
0(
#1845
b10111000 Q
b10111000 D
b0 G
1(
#1850
b10111001 ,
0(
#1855
1%
b10111001 D
b10111001 Q
b1000000000000000000000000000000 G
0:
1(
#1860
b10111010 ,
0(
#1865
b10111010 Q
b10111010 D
b10000000000000000000000000000000 G
1(
#1870
b10111011 ,
0(
#1875
b110000 0
b110000 V
b110000 Z
b101111 \
0%
b10111011 D
b10111011 Q
b11000000000000000000000000000000 G
1:
1(
#1880
b10111100 ,
0(
#1885
b10111100 Q
b10111100 D
b0 G
1(
#1890
b10111101 ,
0(
#1895
1%
b10111101 D
b10111101 Q
b1000000000000000000000000000000 G
0:
1(
#1900
b10111110 ,
0(
#1905
b10111110 Q
b10111110 D
b10000000000000000000000000000000 G
1(
#1910
b10111111 ,
0(
#1915
b110001 0
b110001 V
b110001 Z
b110000 \
0%
b10111111 D
b10111111 Q
b11000000000000000000000000000000 G
1:
1(
#1920
b11000000 ,
0(
#1925
b11000000 Q
b11000000 D
b0 G
1(
#1930
b11000001 ,
0(
#1935
1%
b11000001 D
b11000001 Q
b1000000000000000000000000000000 G
0:
1(
#1940
b11000010 ,
0(
#1945
b11000010 Q
b11000010 D
b10000000000000000000000000000000 G
1(
#1950
b11000011 ,
0(
#1955
b110010 0
b110010 V
b110010 Z
b110001 \
0%
b11000011 D
b11000011 Q
b11000000000000000000000000000000 G
1:
1(
#1960
b11000100 ,
0(
#1965
b11000100 Q
b11000100 D
b0 G
1(
#1970
b11000101 ,
0(
#1975
1%
b11000101 D
b11000101 Q
b1000000000000000000000000000000 G
0:
1(
#1980
b11000110 ,
0(
#1985
b11000110 Q
b11000110 D
b10000000000000000000000000000000 G
1(
#1990
b11000111 ,
0(
#1995
b110011 0
b110011 V
b110011 Z
b110010 \
0%
b11000111 D
b11000111 Q
b11000000000000000000000000000000 G
1:
1(
#2000
b11001000 ,
0(
#2005
b11001000 Q
b11001000 D
b0 G
1(
#2010
b11001001 ,
0(
#2015
1%
b11001001 D
b11001001 Q
b1000000000000000000000000000000 G
0:
1(
#2020
b11001010 ,
0(
#2025
b11001010 Q
b11001010 D
b10000000000000000000000000000000 G
1(
#2030
b11001011 ,
0(
#2035
b110100 0
b110100 V
b110100 Z
b110011 \
0%
b11001011 D
b11001011 Q
b11000000000000000000000000000000 G
1:
1(
#2040
b11001100 ,
0(
#2045
b11001100 Q
b11001100 D
b0 G
1(
#2050
b11001101 ,
0(
#2055
1%
b11001101 D
b11001101 Q
b1000000000000000000000000000000 G
0:
1(
#2060
b11001110 ,
0(
#2065
b11001110 Q
b11001110 D
b10000000000000000000000000000000 G
1(
#2070
b11001111 ,
0(
#2075
b110101 0
b110101 V
b110101 Z
b110100 \
0%
b11001111 D
b11001111 Q
b11000000000000000000000000000000 G
1:
1(
#2080
b11010000 ,
0(
#2085
b11010000 Q
b11010000 D
b0 G
1(
#2090
b11010001 ,
0(
#2095
1%
b11010001 D
b11010001 Q
b1000000000000000000000000000000 G
0:
1(
#2100
b11010010 ,
0(
#2105
b11010010 Q
b11010010 D
b10000000000000000000000000000000 G
1(
#2110
b11010011 ,
0(
#2115
b110110 0
b110110 V
b110110 Z
b110101 \
0%
b11010011 D
b11010011 Q
b11000000000000000000000000000000 G
1:
1(
#2120
b11010100 ,
0(
#2125
b11010100 Q
b11010100 D
b0 G
1(
#2130
b11010101 ,
0(
#2135
1%
b11010101 D
b11010101 Q
b1000000000000000000000000000000 G
0:
1(
#2140
b11010110 ,
0(
#2145
b11010110 Q
b11010110 D
b10000000000000000000000000000000 G
1(
#2150
b11010111 ,
0(
#2155
b110111 0
b110111 V
b110111 Z
b110110 \
0%
b11010111 D
b11010111 Q
b11000000000000000000000000000000 G
1:
1(
#2160
b11011000 ,
0(
#2165
b11011000 Q
b11011000 D
b0 G
1(
#2170
b11011001 ,
0(
#2175
1%
b11011001 D
b11011001 Q
b1000000000000000000000000000000 G
0:
1(
#2180
b11011010 ,
0(
#2185
b11011010 Q
b11011010 D
b10000000000000000000000000000000 G
1(
#2190
b11011011 ,
0(
