comprehensive/build/wave.vcd
$date
	Wed Jan  5 23:15:43 2022
$end
$version
	Icarus Verilog
$end
$timescale
	1ps
$end
$scope module top_tb $end
$var wire 1 ! vga_blank_n $end
$var wire 1 " vga_vs $end
$var wire 12 # vga_rgb [11:0] $end
$var wire 1 $ vga_hs $end
$var wire 1 % vga_adv_clk $end
$var wire 1 & o_servo0 $end
$var wire 13 ' o_data [12:0] $end
$var reg 1 ( i_clk $end
$var reg 1 ) i_ps2_data $end
$var reg 1 * i_ps2_sclk $end
$var reg 1 + i_rst_n $end
$var integer 32 , i [31:0] $end
$scope module inst $end
$var wire 1 - clk $end
$var wire 1 ( i_clk $end
$var wire 1 ) i_ps2_data $end
$var wire 1 * i_ps2_sclk $end
$var wire 1 + i_rst_n $end
$var wire 1 . replaying $end
$var wire 1 / rst_n $end
$var wire 1 % vga_adv_clk $end
$var wire 1 ! vga_blank_n $end
$var wire 1 0 vga_sync_n $end
$var wire 10 1 vga_ypos [9:0] $end
$var wire 10 2 vga_xpos [9:0] $end
$var wire 1 " vga_vs $end
$var wire 12 3 vga_rgb [11:0] $end
$var wire 1 $ vga_hs $end
$var wire 12 4 vga_data [11:0] $end
$var wire 5 5 tot_state [4:0] $end
$var wire 13 6 servo3 [12:0] $end
$var wire 13 7 servo2 [12:0] $end
$var wire 13 8 servo1 [12:0] $end
$var wire 1 & o_servo0 $end
$var wire 13 9 o_data [12:0] $end
$var wire 10 : kb_state [9:0] $end
$var wire 5 ; current_state [4:0] $end
$var wire 1 < clk_vga $end
$scope module data_ctr_ist $end
$var wire 1 ( i_clk $end
$var wire 1 + i_rst_n $end
$var wire 1 . replaying $end
$var wire 10 = i_keyboard_status [9:0] $end
$var wire 1 > controller_clk $end
$var reg 5 ? controller_state [4:0] $end
$var reg 5 @ current_state [4:0] $end
$var reg 13 A servo0 [12:0] $end
$var reg 13 B servo1 [12:0] $end
$var reg 13 C servo2 [12:0] $end
$var reg 13 D servo3 [12:0] $end
$var reg 5 E tot_state [4:0] $end
$scope module time_generator $end
$var wire 1 ( i_clk $end
$var wire 1 + rst_n $end
$var wire 1 > o_clk $end
$var reg 32 F count [31:0] $end
$var integer 32 G lim [31:0] $end
$upscope $end
$upscope $end
$scope module div_inst $end
$var wire 1 - clk $end
$var wire 1 H rst $end
$var reg 1 < clk_out $end
$var reg 32 I cnt [31:0] $end
$upscope $end
$scope module kb_controller_inst $end
$var wire 1 ) i_data $end
$var wire 1 + i_rst_n $end
$var wire 1 * i_sclk $end
$var wire 1 J done $end
$var wire 8 K data_out [7:0] $end
$var reg 10 L o_keyboard_status [9:0] $end
$var reg 1 M release_flag $end
$scope module kbdriver $end
$var wire 1 ) i_data $end
$var wire 1 + i_rst_n $end
$var wire 1 * i_sclk $end
$var wire 1 J o_done $end
$var reg 8 N o_frame_data [7:0] $end
$var reg 4 O read_cnt [3:0] $end
$upscope $end
$upscope $end
$scope module servo_driver0 $end
$var wire 13 P data [12:0] $end
$var wire 1 ( i_clk $end
$var wire 1 + i_rst_n $end
$var wire 1 & o_signal $end
$var wire 1 Q gen_clk $end
$var reg 13 R counter [12:0] $end
$scope module div_inst $end
$var wire 1 ( i_clk $end
$var wire 1 + rst_n $end
$var wire 1 Q o_clk $end
$var reg 32 S count [31:0] $end
$var integer 32 T lim [31:0] $end
$upscope $end
$upscope $end
$scope module vga_display_inst $end
$var wire 1 < clk $end
$var wire 1 U rst_n $end
$var wire 10 V vga_ypos [9:0] $end
$var wire 10 W vga_xpos [9:0] $end
$var reg 12 X vga_data [11:0] $end
$upscope $end
$scope module vga_driver_inst $end
$var wire 1 < clk_vga $end
$var wire 1 Y rst_n $end
$var wire 12 Z vga_data [11:0] $end
$var wire 10 [ vga_ypos [9:0] $end
$var wire 10 \ vga_xpos [9:0] $end
$var wire 12 ] vga_rgb [11:0] $end
$var reg 11 ^ hcnt [10:0] $end
$var reg 10 _ vcnt [9:0] $end
$var reg 1 $ vga_hs $end
$var reg 1 " vga_vs $end
$upscope $end
$upscope $end
$upscope $end
$enddefinitions $end
#0
$dumpvars
b0 _
b0 ^
b0 ]
b1 \
b1 [
b0 Z
0Y
b0 X
b1 W
b1 V
0U
b111110100 T
bx S
bx R
xQ
bx P
bx O
bx N
0M
b0 L
bx K
xJ
bx I
zH
b10011000100101101000000 G
bx F
bx E
bx D
bx C
bx B
bx A
bx @
bx ?
x>
b0 =
x<
bx ;
b0 :
bx 9
bx 8
bx 7
bx 6
bx 5
b0 4
b0 3
b1 2
b1 1
00
z/
z.
z-
b0 ,
1+
x*
x)
0(
bx '
x&
x%
1$
b0 #
1"
1!
$end
#5000000000000
1&
0J
0>
0Q
b0 F
b0 S
b0 K
b0 N
b0 O
b0 ?
b0 ;
b0 @
b0 5
b0 E
b10010110 6
b10010110 D
b10010110 7
b10010110 C
b10010110 8
b10010110 B
b10010110 '
b10010110 9
b10010110 A
b10010110 P
1U
1Y
b0 R
1(
0+
#10000000000000
0U
0Y
b1 ,
0(
1+
#15000000000000
b1 S
b1 F
1(
#20000000000000
b10 ,
0(
#25000000000000
b10 F
b10 S
1(
#30000000000000
b11 ,
0(
#35000000000000
b11 S
b11 F
1(
#40000000000000
b100 ,
0(
#45000000000000
b100 F
b100 S
1(
#50000000000000
b101 ,
0(
#55000000000000
b101 S
b101 F
1(
#60000000000000
b110 ,
0(
#65000000000000
b110 F
b110 S
1(
#70000000000000
b111 ,
0(
#75000000000000
b111 S
b111 F
1(
#80000000000000
b1000 ,
0(
#85000000000000
b1000 F
b1000 S
1(
#90000000000000
b1001 ,
0(
#95000000000000
b1001 S
b1001 F
1(
#100000000000000
b1010 ,
0(
#105000000000000
b1010 F
b1010 S
1(
#110000000000000
b1011 ,
0(
#115000000000000
b1011 S
b1011 F
1(
#120000000000000
b1100 ,
0(
#125000000000000
b1100 F
b1100 S
1(
#130000000000000
b1101 ,
0(
#135000000000000
b1101 S
b1101 F
1(
#140000000000000
b1110 ,
0(
#145000000000000
b1110 F
b1110 S
1(
#150000000000000
b1111 ,
0(
#155000000000000
b1111 S
b1111 F
1(
#160000000000000
b10000 ,
0(
#165000000000000
b10000 F
b10000 S
1(
#170000000000000
b10001 ,
0(
#175000000000000
b10001 S
b10001 F
1(
#180000000000000
b10010 ,
0(
#185000000000000
b10010 F
b10010 S
1(
#190000000000000
b10011 ,
0(
#195000000000000
b10011 S
b10011 F
1(
#200000000000000
b10100 ,
0(
#205000000000000
b10100 F
b10100 S
1(
#210000000000000
b10101 ,
0(
#215000000000000
b10101 S
b10101 F
1(
#220000000000000
b10110 ,
0(
#225000000000000
b10110 F
b10110 S
1(
#230000000000000
b10111 ,
0(
#235000000000000
b10111 S
b10111 F
1(
#240000000000000
b11000 ,
0(
#245000000000000
b11000 F
b11000 S
1(
#250000000000000
b11001 ,
0(
#255000000000000
b11001 S
b11001 F
1(
#260000000000000
b11010 ,
0(
#265000000000000
b11010 F
b11010 S
1(
#270000000000000
b11011 ,
0(
#275000000000000
b11011 S
b11011 F
1(
#280000000000000
b11100 ,
0(
#285000000000000
b11100 F
b11100 S
1(
#290000000000000
b11101 ,
0(
#295000000000000
b11101 S
b11101 F
1(
#300000000000000
b11110 ,
0(
#305000000000000
b11110 F
b11110 S
1(
#310000000000000
b11111 ,
0(
#315000000000000
b11111 S
b11111 F
1(
#320000000000000
b100000 ,
0(
#325000000000000
b100000 F
b100000 S
1(
#330000000000000
b100001 ,
0(
#335000000000000
b100001 S
b100001 F
1(
#340000000000000
b100010 ,
0(
#345000000000000
b100010 F
b100010 S
1(
#350000000000000
b100011 ,
0(
#355000000000000
b100011 S
b100011 F
1(
#360000000000000
b100100 ,
0(
#365000000000000
b100100 F
b100100 S
1(
#370000000000000
b100101 ,
0(
#375000000000000
b100101 S
b100101 F
1(
#380000000000000
b100110 ,
0(
#385000000000000
b100110 F
b100110 S
1(
#390000000000000
b100111 ,
0(
#395000000000000
b100111 S
b100111 F
1(
#400000000000000
b101000 ,
0(
#405000000000000
b101000 F
b101000 S
1(
#410000000000000
b101001 ,
0(
#415000000000000
b101001 S
b101001 F
1(
#420000000000000
b101010 ,
0(
#425000000000000
b101010 F
b101010 S
1(
#430000000000000
b101011 ,
0(
#435000000000000
b101011 S
b101011 F
1(
#440000000000000
b101100 ,
0(
#445000000000000
b101100 F
b101100 S
1(
#450000000000000
b101101 ,
0(
#455000000000000
b101101 S
b101101 F
1(
#460000000000000
b101110 ,
0(
#465000000000000
b101110 F
b101110 S
1(
#470000000000000
b101111 ,
0(
#475000000000000
b101111 S
b101111 F
1(
#480000000000000
b110000 ,
0(
#485000000000000
b110000 F
b110000 S
1(
#490000000000000
b110001 ,
0(
#495000000000000
b110001 S
b110001 F
1(
#500000000000000
b110010 ,
0(
#505000000000000
b110010 F
b110010 S
1(
#510000000000000
b110011 ,
0(
#515000000000000
b110011 S
b110011 F
1(
#520000000000000
b110100 ,
0(
#525000000000000
b110100 F
b110100 S
1(
#530000000000000
b110101 ,
0(
#535000000000000
b110101 S
b110101 F
1(
#540000000000000
b110110 ,
0(
#545000000000000
b110110 F
b110110 S
1(
#550000000000000
b110111 ,
0(
#555000000000000
b110111 S
b110111 F
1(
#560000000000000
b111000 ,
0(
#565000000000000
b111000 F
b111000 S
1(
#570000000000000
b111001 ,
0(
#575000000000000
b111001 S
b111001 F
1(
#580000000000000
b111010 ,
0(
#585000000000000
b111010 F
b111010 S
1(
#590000000000000
b111011 ,
0(
#595000000000000
b111011 S
b111011 F
1(
#600000000000000
b111100 ,
0(
#605000000000000
b111100 F
b111100 S
1(
#610000000000000
b111101 ,
0(
#615000000000000
b111101 S
b111101 F
1(
#620000000000000
b111110 ,
0(
#625000000000000
b111110 F
b111110 S
1(
#630000000000000
b111111 ,
0(
#635000000000000
b111111 S
b111111 F
1(
#640000000000000
b1000000 ,
0(
#645000000000000
b1000000 F
b1000000 S
1(
#650000000000000
b1000001 ,
0(
#655000000000000
b1000001 S
b1000001 F
1(
#660000000000000
b1000010 ,
0(
#665000000000000
b1000010 F
b1000010 S
1(
#670000000000000
b1000011 ,
0(
#675000000000000
b1000011 S
b1000011 F
1(
#680000000000000
b1000100 ,
0(
#685000000000000
b1000100 F
b1000100 S
1(
#690000000000000
b1000101 ,
0(
#695000000000000
b1000101 S
b1000101 F
1(
#700000000000000
b1000110 ,
0(
#705000000000000
b1000110 F
b1000110 S
1(
#710000000000000
b1000111 ,
0(
#715000000000000
b1000111 S
b1000111 F
1(
#720000000000000
b1001000 ,
0(
#725000000000000
b1001000 F
b1001000 S
1(
#730000000000000
b1001001 ,
0(
#735000000000000
b1001001 S
b1001001 F
1(
#740000000000000
b1001010 ,
0(
#745000000000000
b1001010 F
b1001010 S
1(
#750000000000000
b1001011 ,
0(
#755000000000000
b1001011 S
b1001011 F
1(
#760000000000000
b1001100 ,
0(
#765000000000000
b1001100 F
b1001100 S
1(
#770000000000000
b1001101 ,
0(
#775000000000000
b1001101 S
b1001101 F
1(
#780000000000000
b1001110 ,
0(
#785000000000000
b1001110 F
b1001110 S
1(
#790000000000000
b1001111 ,
0(
#795000000000000
b1001111 S
b1001111 F
1(
#800000000000000
b1010000 ,
0(
#805000000000000
b1010000 F
b1010000 S
1(
#810000000000000
b1010001 ,
0(
#815000000000000
b1010001 S
b1010001 F
1(
#820000000000000
b1010010 ,
0(
#825000000000000
b1010010 F
b1010010 S
1(
#830000000000000
b1010011 ,
0(
#835000000000000
b1010011 S
b1010011 F
1(
#840000000000000
b1010100 ,
0(
#845000000000000
b1010100 F
b1010100 S
1(
#850000000000000
b1010101 ,
0(
#855000000000000
b1010101 S
b1010101 F
1(
#860000000000000
b1010110 ,
0(
#865000000000000
b1010110 F
b1010110 S
1(
#870000000000000
b1010111 ,
0(
#875000000000000
b1010111 S
b1010111 F
1(
#880000000000000
b1011000 ,
0(
#885000000000000
b1011000 F
b1011000 S
1(
#890000000000000
b1011001 ,
0(
#895000000000000
b1011001 S
b1011001 F
1(
#900000000000000
b1011010 ,
0(
#905000000000000
b1011010 F
b1011010 S
1(
#910000000000000
b1011011 ,
0(
#915000000000000
b1011011 S
b1011011 F
1(
#920000000000000
b1011100 ,
0(
#925000000000000
b1011100 F
b1011100 S
1(
#930000000000000
b1011101 ,
0(
#935000000000000
b1011101 S
b1011101 F
1(
#940000000000000
b1011110 ,
0(
#945000000000000
b1011110 F
b1011110 S
1(
#950000000000000
b1011111 ,
0(
#955000000000000
b1011111 S
b1011111 F
1(
#960000000000000
b1100000 ,
0(
#965000000000000
b1100000 F
b1100000 S
1(
#970000000000000
b1100001 ,
0(
#975000000000000
b1100001 S
b1100001 F
1(
#980000000000000
b1100010 ,
0(
#985000000000000
b1100010 F
b1100010 S
1(
#990000000000000
b1100011 ,
0(
#995000000000000
b1100011 S
b1100011 F
1(
#1000000000000000
b1100100 ,
0(
#1005000000000000
b1100100 F
b1100100 S
1(
#1010000000000000
b1100101 ,
0(
#1015000000000000
b1100101 S
b1100101 F
1(
#1020000000000000
b1100110 ,
0(
#1025000000000000
b1100110 F
b1100110 S
1(
#1030000000000000
b1100111 ,
0(
#1035000000000000
b1100111 S
b1100111 F
1(
#1040000000000000
b1101000 ,
0(
#1045000000000000
b1101000 F
b1101000 S
1(
#1050000000000000
b1101001 ,
0(
#1055000000000000
b1101001 S
b1101001 F
1(
#1060000000000000
b1101010 ,
0(
#1065000000000000
b1101010 F
b1101010 S
1(
#1070000000000000
b1101011 ,
0(
#1075000000000000
b1101011 S
b1101011 F
1(
#1080000000000000
b1101100 ,
0(
#1085000000000000
b1101100 F
b1101100 S
1(
#1090000000000000
b1101101 ,
0(
#1095000000000000
b1101101 S
b1101101 F
1(
#1100000000000000
b1101110 ,
0(
#1105000000000000
b1101110 F
b1101110 S
1(
#1110000000000000
b1101111 ,
0(
#1115000000000000
b1101111 S
b1101111 F
1(
#1120000000000000
b1110000 ,
0(
#1125000000000000
b1110000 F
b1110000 S
1(
#1130000000000000
b1110001 ,
0(
#1135000000000000
b1110001 S
b1110001 F
1(
#1140000000000000
b1110010 ,
0(
#1145000000000000
b1110010 F
b1110010 S
1(
#1150000000000000
b1110011 ,
0(
#1155000000000000
b1110011 S
b1110011 F
1(
#1160000000000000
b1110100 ,
0(
#1165000000000000
b1110100 F
b1110100 S
1(
#1170000000000000
b1110101 ,
0(
#1175000000000000
b1110101 S
b1110101 F
1(
#1180000000000000
b1110110 ,
0(
#1185000000000000
b1110110 F
b1110110 S
1(
#1190000000000000
b1110111 ,
0(
#1195000000000000
b1110111 S
b1110111 F
1(
#1200000000000000
b1111000 ,
0(
#1205000000000000
b1111000 F
b1111000 S
1(
#1210000000000000
b1111001 ,
0(
#1215000000000000
b1111001 S
b1111001 F
1(
#1220000000000000
b1111010 ,
0(
#1225000000000000
b1111010 F
b1111010 S
1(
#1230000000000000
b1111011 ,
0(
#1235000000000000
b1111011 S
b1111011 F
1(
#1240000000000000
b1111100 ,
0(
#1245000000000000
b1111100 F
b1111100 S
1(
#1250000000000000
b1111101 ,
0(
#1255000000000000
b1111101 S
b1111101 F
1(
#1260000000000000
b1111110 ,
0(
#1265000000000000
b1111110 F
b1111110 S
1(
#1270000000000000
b1111111 ,
0(
#1275000000000000
b1111111 S
b1111111 F
1(
#1280000000000000
b10000000 ,
0(
#1285000000000000
b10000000 F
b10000000 S
1(
#1290000000000000
b10000001 ,
0(
#1295000000000000
b10000001 S
b10000001 F
1(
#1300000000000000
b10000010 ,
0(
#1305000000000000
b10000010 F
b10000010 S
1(
#1310000000000000
b10000011 ,
0(
#1315000000000000
b10000011 S
b10000011 F
1(
#1320000000000000
b10000100 ,
0(
#1325000000000000
b10000100 F
b10000100 S
1(
#1330000000000000
b10000101 ,
0(
#1335000000000000
b10000101 S
b10000101 F
1(
#1340000000000000
b10000110 ,
0(
#1345000000000000
b10000110 F
b10000110 S
1(
#1350000000000000
b10000111 ,
0(
#1355000000000000
b10000111 S
b10000111 F
1(
#1360000000000000
b10001000 ,
0(
#1365000000000000
b10001000 F
b10001000 S
1(
#1370000000000000
b10001001 ,
0(
#1375000000000000
b10001001 S
b10001001 F
1(
#1380000000000000
b10001010 ,
0(
#1385000000000000
b10001010 F
b10001010 S
1(
#1390000000000000
b10001011 ,
0(
#1395000000000000
b10001011 S
b10001011 F
1(
#1400000000000000
b10001100 ,
0(
#1405000000000000
b10001100 F
b10001100 S
1(
#1410000000000000
b10001101 ,
0(
#1415000000000000
b10001101 S
b10001101 F
1(
#1420000000000000
b10001110 ,
0(
#1425000000000000
b10001110 F
b10001110 S
1(
#1430000000000000
b10001111 ,
0(
#1435000000000000
b10001111 S
b10001111 F
1(
#1440000000000000
b10010000 ,
0(
#1445000000000000
b10010000 F
b10010000 S
1(
#1450000000000000
b10010001 ,
0(
#1455000000000000
b10010001 S
b10010001 F
1(
#1460000000000000
b10010010 ,
0(
#1465000000000000
b10010010 F
b10010010 S
1(
#1470000000000000
b10010011 ,
0(
#1475000000000000
b10010011 S
b10010011 F
1(
#1480000000000000
b10010100 ,
0(
#1485000000000000
b10010100 F
b10010100 S
1(
#1490000000000000
b10010101 ,
0(
#1495000000000000
b10010101 S
b10010101 F
1(
#1500000000000000
b10010110 ,
0(
#1505000000000000
b10010110 F
b10010110 S
1(
#1510000000000000
b10010111 ,
0(
#1515000000000000
b10010111 S
b10010111 F
1(
#1520000000000000
b10011000 ,
0(
#1525000000000000
b10011000 F
b10011000 S
1(
#1530000000000000
b10011001 ,
0(
#1535000000000000
b10011001 S
b10011001 F
1(
#1540000000000000
b10011010 ,
0(
#1545000000000000
b10011010 F
b10011010 S
1(
#1550000000000000
b10011011 ,
0(
#1555000000000000
b10011011 S
b10011011 F
1(
#1560000000000000
b10011100 ,
0(
#1565000000000000
b10011100 F
b10011100 S
1(
#1570000000000000
b10011101 ,
0(
#1575000000000000
b10011101 S
b10011101 F
1(
#1580000000000000
b10011110 ,
0(
#1585000000000000
b10011110 F
b10011110 S
1(
#1590000000000000
b10011111 ,
0(
#1595000000000000
b10011111 S
b10011111 F
1(
#1600000000000000
b10100000 ,
0(
#1605000000000000
b10100000 F
b10100000 S
1(
#1610000000000000
b10100001 ,
0(
#1615000000000000
b10100001 S
b10100001 F
1(
#1620000000000000
b10100010 ,
0(
#1625000000000000
b10100010 F
b10100010 S
1(
#1630000000000000
b10100011 ,
0(
#1635000000000000
b10100011 S
b10100011 F
1(
#1640000000000000
b10100100 ,
0(
#1645000000000000
b10100100 F
b10100100 S
1(
#1650000000000000
b10100101 ,
0(
#1655000000000000
b10100101 S
b10100101 F
1(
#1660000000000000
b10100110 ,
0(
#1665000000000000
b10100110 F
b10100110 S
1(
#1670000000000000
b10100111 ,
0(
#1675000000000000
b10100111 S
b10100111 F
1(
#1680000000000000
b10101000 ,
0(
#1685000000000000
b10101000 F
b10101000 S
1(
#1690000000000000
b10101001 ,
0(
#1695000000000000
b10101001 S
b10101001 F
1(
#1700000000000000
b10101010 ,
0(
#1705000000000000
b10101010 F
b10101010 S
1(
#1710000000000000
b10101011 ,
0(
#1715000000000000
b10101011 S
b10101011 F
1(
#1720000000000000
b10101100 ,
0(
#1725000000000000
b10101100 F
b10101100 S
1(
#1730000000000000
b10101101 ,
0(
#1735000000000000
b10101101 S
b10101101 F
1(
#1740000000000000
b10101110 ,
0(
#1745000000000000
b10101110 F
b10101110 S
1(
#1750000000000000
b10101111 ,
0(
#1755000000000000
b10101111 S
b10101111 F
1(
#1760000000000000
b10110000 ,
0(
#1765000000000000
b10110000 F
b10110000 S
1(
#1770000000000000
b10110001 ,
0(
#1775000000000000
b10110001 S
b10110001 F
1(
#1780000000000000
b10110010 ,
0(
#1785000000000000
b10110010 F
b10110010 S
1(
#1790000000000000
b10110011 ,
0(
#1795000000000000
b10110011 S
b10110011 F
1(
#1800000000000000
b10110100 ,
0(
#1805000000000000
b10110100 F
b10110100 S
1(
#1810000000000000
b10110101 ,
0(
#1815000000000000
b10110101 S
b10110101 F
1(
#1820000000000000
b10110110 ,
0(
#1825000000000000
b10110110 F
b10110110 S
1(
#1830000000000000
b10110111 ,
0(
#1835000000000000
b10110111 S
b10110111 F
1(
#1840000000000000
b10111000 ,
0(
#1845000000000000
b10111000 F
b10111000 S
1(
#1850000000000000
b10111001 ,
0(
#1855000000000000
b10111001 S
b10111001 F
1(
#1860000000000000
b10111010 ,
0(
#1865000000000000
b10111010 F
b10111010 S
1(
#1870000000000000
b10111011 ,
0(
#1875000000000000
b10111011 S
b10111011 F
1(
#1880000000000000
b10111100 ,
0(
#1885000000000000
b10111100 F
b10111100 S
1(
#1890000000000000
b10111101 ,
0(
#1895000000000000
b10111101 S
b10111101 F
1(
#1900000000000000
b10111110 ,
0(
#1905000000000000
b10111110 F
b10111110 S
1(
#1910000000000000
b10111111 ,
0(
#1915000000000000
b10111111 S
b10111111 F
1(
#1920000000000000
b11000000 ,
0(
#1925000000000000
b11000000 F
b11000000 S
1(
#1930000000000000
b11000001 ,
0(
#1935000000000000
b11000001 S
b11000001 F
1(
#1940000000000000
b11000010 ,
0(
#1945000000000000
b11000010 F
b11000010 S
1(
#1950000000000000
b11000011 ,
0(
#1955000000000000
b11000011 S
b11000011 F
1(
#1960000000000000
b11000100 ,
0(
#1965000000000000
b11000100 F
b11000100 S
1(
#1970000000000000
b11000101 ,
0(
#1975000000000000
b11000101 S
b11000101 F
1(
#1980000000000000
b11000110 ,
0(
#1985000000000000
b11000110 F
b11000110 S
1(
#1990000000000000
b11000111 ,
0(
#1995000000000000
b11000111 S
b11000111 F
1(
#2000000000000000
b11001000 ,
0(
#2005000000000000
b11001000 F
b11001000 S
1(
#2010000000000000
b11001001 ,
0(
#2015000000000000
b11001001 S
b11001001 F
1(
#2020000000000000
b11001010 ,
0(
#2025000000000000
b11001010 F
b11001010 S
1(
#2030000000000000
b11001011 ,
0(
#2035000000000000
b11001011 S
b11001011 F
1(
#2040000000000000
b11001100 ,
0(
#2045000000000000
b11001100 F
b11001100 S
1(
#2050000000000000
b11001101 ,
0(
#2055000000000000
b11001101 S
b11001101 F
1(
#2060000000000000
b11001110 ,
0(
#2065000000000000
b11001110 F
b11001110 S
1(
#2070000000000000
b11001111 ,
0(
#2075000000000000
b11001111 S
b11001111 F
1(
#2080000000000000
b11010000 ,
0(
#2085000000000000
b11010000 F
b11010000 S
1(
#2090000000000000
b11010001 ,
0(
#2095000000000000
b11010001 S
b11010001 F
1(
#2100000000000000
b11010010 ,
0(
#2105000000000000
b11010010 F
b11010010 S
1(
#2110000000000000
b11010011 ,
0(
#2115000000000000
b11010011 S
b11010011 F
1(
#2120000000000000
b11010100 ,
0(
#2125000000000000
b11010100 F
b11010100 S
1(
#2130000000000000
b11010101 ,
0(
#2135000000000000
b11010101 S
b11010101 F
1(
#2140000000000000
b11010110 ,
0(
#2145000000000000
b11010110 F
b11010110 S
1(
#2150000000000000
b11010111 ,
0(
#2155000000000000
b11010111 S
b11010111 F
1(
#2160000000000000
b11011000 ,
0(
#2165000000000000
b11011000 F
b11011000 S
1(
#2170000000000000
b11011001 ,
0(
#2175000000000000
b11011001 S
b11011001 F
1(
#2180000000000000
b11011010 ,
0(
#2185000000000000
b11011010 F
b11011010 S
1(
#2190000000000000
b11011011 ,
0(
#2195000000000000
b11011011 S
b11011011 F
1(
#2200000000000000
b11011100 ,
0(
#2205000000000000
b11011100 F
b11011100 S
1(
#2210000000000000
b11011101 ,
0(
#2215000000000000
b11011101 S
b11011101 F
1(
#2220000000000000
b11011110 ,
0(
#2225000000000000
b11011110 F
b11011110 S
1(
#2230000000000000
b11011111 ,
0(
#2235000000000000
b11011111 S
b11011111 F
1(
#2240000000000000
b11100000 ,
0(
#2245000000000000
b11100000 F
b11100000 S
1(
#2250000000000000
b11100001 ,
0(
#2255000000000000
b11100001 S
b11100001 F
1(
#2260000000000000
b11100010 ,
0(
#2265000000000000
b11100010 F
b11100010 S
1(
#2270000000000000
b11100011 ,
0(
#2275000000000000
b11100011 S
b11100011 F
1(
#2280000000000000
b11100100 ,
0(
#2285000000000000
b11100100 F
b11100100 S
1(
#2290000000000000
b11100101 ,
0(
#2295000000000000
b11100101 S
b11100101 F
1(
#2300000000000000
b11100110 ,
0(
#2305000000000000
b11100110 F
b11100110 S
1(
#2310000000000000
b11100111 ,
0(
#2315000000000000
b11100111 S
b11100111 F
1(
#2320000000000000
b11101000 ,
0(
#2325000000000000
b11101000 F
b11101000 S
1(
#2330000000000000
b11101001 ,
0(
#2335000000000000
b11101001 S
b11101001 F
1(
#2340000000000000
b11101010 ,
0(
#2345000000000000
b11101010 F
b11101010 S
1(
#2350000000000000
b11101011 ,
0(
#2355000000000000
b11101011 S
b11101011 F
1(
#2360000000000000
b11101100 ,
0(
#2365000000000000
b11101100 F
b11101100 S
1(
#2370000000000000
b11101101 ,
0(
#2375000000000000
b11101101 S
b11101101 F
1(
#2380000000000000
b11101110 ,
0(
#2385000000000000
b11101110 F
b11101110 S
1(
#2390000000000000
b11101111 ,
0(
#2395000000000000
b11101111 S
b11101111 F
1(
#2400000000000000
b11110000 ,
0(
#2405000000000000
b11110000 F
b11110000 S
1(
#2410000000000000
b11110001 ,
0(
#2415000000000000
b11110001 S
b11110001 F
1(
#2420000000000000
b11110010 ,
0(
#2425000000000000
b11110010 F
b11110010 S
1(
#2430000000000000
b11110011 ,
0(
#2435000000000000
b11110011 S
b11110011 F
1(
#2440000000000000
b11110100 ,
0(
#2445000000000000
b11110100 F
b11110100 S
1(
#2450000000000000
b11110101 ,
0(
#2455000000000000
b11110101 S
b11110101 F
1(
#2460000000000000
b11110110 ,
0(
#2465000000000000
b11110110 F
b11110110 S
1(
#2470000000000000
b11110111 ,
0(
#2475000000000000
b11110111 S
b11110111 F
1(
#2480000000000000
b11111000 ,
0(
#2485000000000000
b11111000 F
b11111000 S
1(
#2490000000000000
b11111001 ,
0(
#2495000000000000
b11111001 S
b11111001 F
1(
#2500000000000000
b11111010 ,
0(
#2505000000000000
b11111010 F
b11111010 S
1(
#2510000000000000
b11111011 ,
0(
#2515000000000000
b11111011 S
b11111011 F
1(
#2520000000000000
b11111100 ,
0(
#2525000000000000
b11111100 F
b11111100 S
1(
#2530000000000000
b11111101 ,
0(
#2535000000000000
b11111101 S
b11111101 F
1(
#2540000000000000
b11111110 ,
0(
#2545000000000000
b11111110 F
b11111110 S
1(
#2550000000000000
b11111111 ,
0(
#2555000000000000
b11111111 S
b11111111 F
1(
#2560000000000000
b100000000 ,
0(
#2565000000000000
b100000000 F
b100000000 S
1(
#2570000000000000
b100000001 ,
0(
#2575000000000000
b100000001 S
b100000001 F
1(
#2580000000000000
b100000010 ,
0(
#2585000000000000
b100000010 F
b100000010 S
1(
#2590000000000000
b100000011 ,
0(
#2595000000000000
b100000011 S
b100000011 F
1(
#2600000000000000
b100000100 ,
0(
#2605000000000000
b100000100 F
b100000100 S
1(
#2610000000000000
b100000101 ,
0(
#2615000000000000
b100000101 S
b100000101 F
1(
#2620000000000000
b100000110 ,
0(
#2625000000000000
b100000110 F
b100000110 S
1(
#2630000000000000
b100000111 ,
0(
#2635000000000000
b100000111 S
b100000111 F
1(
#2640000000000000
b100001000 ,
0(
#2645000000000000
b100001000 F
b100001000 S
1(
#2650000000000000
b100001001 ,
0(
#2655000000000000
b100001001 S
b100001001 F
1(
#2660000000000000
b100001010 ,
0(
#2665000000000000
b100001010 F
b100001010 S
1(
#2670000000000000
b100001011 ,
0(
#2675000000000000
b100001011 S
b100001011 F
1(
#2680000000000000
b100001100 ,
0(
#2685000000000000
b100001100 F
b100001100 S
1(
#2690000000000000
b100001101 ,
0(
#2695000000000000
b100001101 S
b100001101 F
1(
#2700000000000000
b100001110 ,
0(
#2705000000000000
b100001110 F
b100001110 S
1(
#2710000000000000
b100001111 ,
0(
#2715000000000000
b100001111 S
b100001111 F
1(
#2720000000000000
b100010000 ,
0(
#2725000000000000
b100010000 F
b100010000 S
1(
#2730000000000000
b100010001 ,
0(
#2735000000000000
b100010001 S
b100010001 F
1(
#2740000000000000
b100010010 ,
0(
#2745000000000000
b100010010 F
b100010010 S
1(
#2750000000000000
b100010011 ,
0(
#2755000000000000
b100010011 S
b100010011 F
1(
#2760000000000000
b100010100 ,
0(
#2765000000000000
b100010100 F
b100010100 S
1(
#2770000000000000
b100010101 ,
0(
#2775000000000000
b100010101 S
b100010101 F
1(
#2780000000000000
b100010110 ,
0(
#2785000000000000
b100010110 F
b100010110 S
1(
#2790000000000000
b100010111 ,
0(
#2795000000000000
b100010111 S
b100010111 F
1(
#2800000000000000
b100011000 ,
0(
#2805000000000000
b100011000 F
b100011000 S
1(
#2810000000000000
b100011001 ,
0(
#2815000000000000
b100011001 S
b100011001 F
1(
#2820000000000000
b100011010 ,
0(
#2825000000000000
b100011010 F
b100011010 S
1(
#2830000000000000
b100011011 ,
0(
#2835000000000000
b100011011 S
b100011011 F
1(
#2840000000000000
b100011100 ,
0(
#2845000000000000
b100011100 F
b100011100 S
1(
#2850000000000000
b100011101 ,
0(
#2855000000000000
b100011101 S
b100011101 F
1(
#2860000000000000
b100011110 ,
0(
#2865000000000000
b100011110 F
b100011110 S
1(
#2870000000000000
b100011111 ,
0(
#2875000000000000
b100011111 S
b100011111 F
1(
#2880000000000000
b100100000 ,
0(
#2885000000000000
b100100000 F
b100100000 S
1(
#2890000000000000
b100100001 ,
0(
#2895000000000000
b100100001 S
b100100001 F
1(
#2900000000000000
b100100010 ,
0(
#2905000000000000
b100100010 F
b100100010 S
1(
#2910000000000000
b100100011 ,
0(
#2915000000000000
b100100011 S
b100100011 F
1(
#2920000000000000
b100100100 ,
0(
#2925000000000000
b100100100 F
b100100100 S
1(
#2930000000000000
b100100101 ,
0(
#2935000000000000
b100100101 S
b100100101 F
1(
