I2C_driver/build/wave2.vcd
$date
	Mon Jan  3 20:05:44 2022
$end
$version
	Icarus Verilog
$end
$timescale
	1s
$end
$scope module servo_driver_tb $end
$var wire 1 ! o_SCL $end
$var wire 1 " io_SDA $end
$var reg 1 # i_clk $end
$var reg 1 $ i_rst_n $end
$var integer 32 % i [31:0] $end
$scope module servo_inst $end
$var wire 1 # i_clk $end
$var wire 1 $ i_rst_n $end
$var wire 1 ! o_SCL $end
$var wire 1 " io_SDA $end
$var wire 1 & controller_clk $end
$var wire 1 ' complete $end
$var reg 4 ( current_state [3:0] $end
$var reg 8 ) gen_data [7:0] $end
$var reg 8 * gen_register_addr [7:0] $end
$var reg 1 + start_flag $end
$scope module I2C_driver $end
$var wire 1 # i_clk $end
$var wire 8 , i_data [7:0] $end
$var wire 8 - i_register_addr [7:0] $end
$var wire 1 $ i_rst_n $end
$var wire 1 + i_start $end
$var wire 1 ' o_complete $end
$var wire 1 . controller_clk $end
$var reg 6 / current_state [5:0] $end
$var reg 1 " io_SDA $end
$var reg 1 ! o_SCL $end
$scope module clk_generator $end
$var wire 1 # i_clk $end
$var wire 1 $ rst_n $end
$var wire 1 . o_clk $end
$var reg 32 0 count [31:0] $end
$var integer 32 1 lim [31:0] $end
$upscope $end
$upscope $end
$scope module controller_clk_generator $end
$var wire 1 # i_clk $end
$var wire 1 $ rst_n $end
$var wire 1 & o_clk $end
$var reg 32 2 count [31:0] $end
$var integer 32 3 lim [31:0] $end
$upscope $end
$scope task send_byte $end
$upscope $end
$upscope $end
$upscope $end
$enddefinitions $end
#0
$dumpvars
b1 3
bx 2
b1 1
bx 0
bx /
x.
bx -
bx ,
x+
bx *
bx )
bx (
x'
x&
bx %
1$
0#
x"
1!
$end
#5
1"
0&
0.
b0 2
b0 0
0'
b0 /
0+
b0 (
0$
#10
b0 %
1$
#20
b11101 /
0!
1.
1&
b1 0
b1 2
1+
b0 *
b0 -
b10000 )
b10000 ,
b1 %
1#
#25
0#
#30
1!
0&
0.
b0 2
b0 0
b10 %
1#
#35
0#
#40
0"
b11100 /
0!
1.
1&
b1 0
b1 2
b11 %
1#
#45
0#
#50
1!
0&
0.
b0 2
b0 0
b100 %
1#
#55
0#
#60
b11011 /
0!
1.
1&
b1 0
b1 2
b101 %
1#
#65
0#
#70
1!
0&
0.
b0 2
b0 0
b110 %
1#
#75
0#
#80
b11010 /
0!
1.
1&
b1 0
b1 2
b111 %
1#
#85
0#
#90
1!
0&
0.
b0 2
b0 0
b1000 %
1#
#95
0#
#100
b11001 /
0!
1.
1&
b1 0
b1 2
b1001 %
1#
#105
0#
#110
1!
0&
0.
b0 2
b0 0
b1010 %
1#
#115
0#
#120
b11000 /
0!
1.
1&
b1 0
b1 2
b1011 %
1#
#125
0#
#130
1!
0&
0.
b0 2
b0 0
b1100 %
1#
#135
0#
#140
b10111 /
0!
1.
1&
b1 0
b1 2
b1101 %
1#
#145
0#
#150
1!
0&
0.
b0 2
b0 0
b1110 %
1#
#155
0#
#160
b10110 /
0!
1.
1&
b1 0
b1 2
b1111 %
1#
#165
0#
#170
1!
0&
0.
b0 2
b0 0
b10000 %
1#
#175
0#
#180
b10101 /
0!
1.
1&
b1 0
b1 2
b10001 %
1#
#185
0#
#190
1!
0&
0.
b0 2
b0 0
b10010 %
1#
#195
0#
#200
b10100 /
0!
1.
1&
b1 0
b1 2
b10011 %
1#
#205
0#
#210
1!
0&
0.
b0 2
b0 0
b10100 %
1#
#215
0#
#220
z"
b10011 /
0!
1.
1&
b1 0
b1 2
b10101 %
1#
#225
0#
#230
1!
0&
0.
b0 2
b0 0
b10110 %
1#
#235
0#
#240
0"
b10010 /
0!
1.
1&
b1 0
b1 2
b10111 %
1#
#245
0#
#250
1!
0&
0.
b0 2
b0 0
b11000 %
1#
#255
0#
#260
b10001 /
0!
1.
1&
b1 0
b1 2
b11001 %
1#
#265
0#
#270
1!
0&
0.
b0 2
b0 0
b11010 %
1#
#275
0#
#280
b10000 /
0!
1.
1&
b1 0
b1 2
b11011 %
1#
#285
0#
#290
1!
0&
0.
b0 2
b0 0
b11100 %
1#
#295
0#
#300
b1111 /
0!
1.
1&
b1 0
b1 2
b11101 %
1#
#305
0#
#310
1!
0&
0.
b0 2
b0 0
b11110 %
1#
#315
0#
#320
b1110 /
0!
1.
1&
b1 0
b1 2
b11111 %
1#
#325
0#
#330
1!
0&
0.
b0 2
b0 0
b100000 %
1#
#335
0#
#340
b1101 /
0!
1.
1&
b1 0
b1 2
b100001 %
1#
#345
0#
#350
1!
0&
0.
b0 2
b0 0
b100010 %
1#
#355
0#
#360
b1100 /
0!
1.
1&
b1 0
b1 2
b100011 %
1#
#365
0#
#370
1!
0&
0.
b0 2
b0 0
b100100 %
1#
#375
0#
#380
b1011 /
0!
1.
1&
b1 0
b1 2
b100101 %
1#
#385
0#
#390
1!
0&
0.
b0 2
b0 0
b100110 %
1#
#395
0#
#400
z"
b1010 /
0!
1.
1&
b1 0
b1 2
b100111 %
1#
#405
0#
#410
1!
0&
0.
b0 2
b0 0
b101000 %
1#
#415
0#
#420
0"
b1001 /
0!
1.
1&
b1 0
b1 2
b101001 %
1#
#425
0#
#430
1!
0&
0.
b0 2
b0 0
b101010 %
1#
#435
0#
#440
b1000 /
0!
1.
1&
b1 0
b1 2
b101011 %
1#
#445
0#
#450
1!
0&
0.
b0 2
b0 0
b101100 %
1#
#455
0#
#460
b111 /
0!
1.
1&
b1 0
b1 2
b101101 %
1#
#465
0#
#470
1!
0&
0.
b0 2
b0 0
b101110 %
1#
#475
0#
#480
1"
b110 /
0!
1.
1&
b1 0
b1 2
b101111 %
1#
#485
0#
#490
1!
0&
0.
b0 2
b0 0
b110000 %
1#
#495
0#
#500
0"
b101 /
0!
1.
1&
b1 0
b1 2
b110001 %
1#
#505
0#
#510
1!
0&
0.
b0 2
b0 0
b110010 %
1#
#515
0#
#520
b100 /
0!
1.
1&
b1 0
b1 2
b110011 %
1#
#525
0#
#530
1!
0&
0.
b0 2
b0 0
b110100 %
1#
#535
0#
#540
b11 /
0!
1.
1&
b1 0
b1 2
b110101 %
1#
#545
0#
#550
1!
0&
0.
b0 2
b0 0
b110110 %
1#
#555
0#
#560
b10 /
0!
1.
1&
b1 0
b1 2
b110111 %
1#
#565
0#
#570
1!
0&
0.
b0 2
b0 0
b111000 %
1#
#575
0#
#580
1'
b1 /
0!
1.
1&
b1 0
b1 2
b111001 %
1#
#585
0#
#590
1!
0&
0.
b0 2
b0 0
0'
b0 /
b1 (
0+
b111010 %
1#
#595
0#
#600
b11101 /
0!
1.
1&
b1 0
b1 2
1+
b11111110 *
b11111110 -
b1111001 )
b1111001 ,
b111011 %
1#
#605
0#
#610
1!
0&
0.
b0 2
b0 0
b111100 %
1#
#615
0#
#620
b11100 /
0!
1.
1&
b1 0
b1 2
b111101 %
1#
#625
0#
#630
1!
0&
0.
b0 2
b0 0
b111110 %
1#
#635
0#
#640
b11011 /
0!
1.
1&
b1 0
b1 2
b111111 %
1#
#645
0#
#650
1!
0&
0.
b0 2
b0 0
b1000000 %
1#
#655
0#
#660
b11010 /
0!
1.
1&
b1 0
b1 2
b1000001 %
1#
#665
0#
#670
1!
0&
0.
b0 2
b0 0
b1000010 %
1#
#675
0#
#680
b11001 /
0!
1.
1&
b1 0
b1 2
b1000011 %
1#
#685
0#
#690
1!
0&
0.
b0 2
b0 0
b1000100 %
1#
#695
0#
#700
b11000 /
0!
1.
1&
b1 0
b1 2
b1000101 %
1#
#705
0#
#710
1!
0&
0.
b0 2
b0 0
b1000110 %
1#
#715
0#
#720
b10111 /
0!
1.
1&
b1 0
b1 2
b1000111 %
1#
#725
0#
#730
1!
0&
0.
b0 2
b0 0
b1001000 %
1#
#735
0#
#740
b10110 /
0!
1.
1&
b1 0
b1 2
b1001001 %
1#
#745
0#
#750
1!
0&
0.
b0 2
b0 0
b1001010 %
1#
#755
0#
#760
b10101 /
0!
1.
1&
b1 0
b1 2
b1001011 %
1#
#765
0#
#770
1!
0&
0.
b0 2
b0 0
b1001100 %
1#
#775
0#
#780
b10100 /
0!
1.
1&
b1 0
b1 2
b1001101 %
1#
#785
0#
#790
1!
0&
0.
b0 2
b0 0
b1001110 %
1#
#795
0#
#800
z"
b10011 /
0!
1.
1&
b1 0
b1 2
b1001111 %
1#
#805
0#
#810
1!
0&
0.
b0 2
b0 0
b1010000 %
1#
#815
0#
#820
1"
b10010 /
0!
1.
1&
b1 0
b1 2
b1010001 %
1#
#825
0#
#830
1!
0&
0.
b0 2
b0 0
b1010010 %
1#
#835
0#
#840
b10001 /
0!
1.
1&
b1 0
b1 2
b1010011 %
1#
#845
0#
#850
1!
0&
0.
b0 2
b0 0
b1010100 %
1#
#855
0#
#860
b10000 /
0!
1.
1&
b1 0
b1 2
b1010101 %
1#
#865
0#
#870
1!
0&
0.
b0 2
b0 0
b1010110 %
1#
#875
0#
#880
b1111 /
0!
1.
1&
b1 0
b1 2
b1010111 %
1#
#885
0#
#890
1!
0&
0.
b0 2
b0 0
b1011000 %
1#
#895
0#
#900
b1110 /
0!
1.
1&
b1 0
b1 2
b1011001 %
1#
#905
0#
#910
1!
0&
0.
b0 2
b0 0
b1011010 %
1#
#915
0#
#920
b1101 /
0!
1.
1&
b1 0
b1 2
b1011011 %
1#
#925
0#
#930
1!
0&
0.
b0 2
b0 0
b1011100 %
1#
#935
0#
#940
b1100 /
0!
1.
1&
b1 0
b1 2
b1011101 %
1#
#945
0#
#950
1!
0&
0.
b0 2
b0 0
b1011110 %
1#
#955
0#
#960
0"
b1011 /
0!
1.
1&
b1 0
b1 2
b1011111 %
1#
#965
0#
#970
1!
0&
0.
b0 2
b0 0
b1100000 %
1#
#975
0#
#980
z"
b1010 /
0!
1.
1&
b1 0
b1 2
b1100001 %
1#
#985
0#
#990
1!
0&
0.
b0 2
b0 0
b1100010 %
1#
#995
0#
#1000
0"
b1001 /
0!
1.
1&
b1 0
b1 2
b1100011 %
1#
#1005
0#
#1010
1!
0&
0.
b0 2
b0 0
b1100100 %
1#
#1015
0#
#1020
1"
b1000 /
0!
1.
1&
b1 0
b1 2
b1100101 %
1#
#1025
0#
#1030
1!
0&
0.
b0 2
b0 0
b1100110 %
1#
#1035
0#
#1040
b111 /
0!
1.
1&
b1 0
b1 2
b1100111 %
1#
#1045
0#
#1050
1!
0&
0.
b0 2
b0 0
b1101000 %
1#
#1055
0#
#1060
b110 /
0!
1.
1&
b1 0
b1 2
b1101001 %
1#
#1065
0#
#1070
1!
0&
0.
b0 2
b0 0
b1101010 %
1#
#1075
0#
#1080
b101 /
0!
1.
1&
b1 0
b1 2
b1101011 %
1#
#1085
0#
#1090
1!
0&
0.
b0 2
b0 0
b1101100 %
1#
#1095
0#
#1100
0"
b100 /
0!
1.
1&
b1 0
b1 2
b1101101 %
1#
#1105
0#
#1110
1!
0&
0.
b0 2
b0 0
b1101110 %
1#
#1115
0#
#1120
b11 /
0!
1.
1&
b1 0
b1 2
b1101111 %
1#
#1125
0#
#1130
1!
0&
0.
b0 2
b0 0
b1110000 %
1#
#1135
0#
#1140
1"
b10 /
0!
1.
1&
b1 0
b1 2
b1110001 %
1#
#1145
0#
#1150
1!
0&
0.
b0 2
b0 0
b1110010 %
1#
#1155
0#
#1160
1'
b1 /
0!
1.
1&
b1 0
b1 2
b1110011 %
1#
#1165
0#
#1170
1!
0&
0.
b0 2
b0 0
0'
b0 /
b10 (
0+
b1110100 %
1#
#1175
0#
#1180
b11101 /
0!
1.
1&
b1 0
b1 2
1+
b0 *
b0 -
b0 )
b0 ,
b1110101 %
1#
#1185
0#
#1190
1!
0&
0.
b0 2
b0 0
b1110110 %
1#
#1195
0#
#1200
0"
b11100 /
0!
1.
1&
b1 0
b1 2
b1110111 %
1#
#1205
0#
#1210
1!
0&
0.
b0 2
b0 0
b1111000 %
1#
#1215
0#
#1220
b11011 /
0!
1.
1&
b1 0
b1 2
b1111001 %
1#
#1225
0#
#1230
1!
0&
0.
b0 2
b0 0
b1111010 %
1#
#1235
0#
#1240
b11010 /
0!
1.
1&
b1 0
b1 2
b1111011 %
1#
#1245
0#
#1250
1!
0&
0.
b0 2
b0 0
b1111100 %
1#
#1255
0#
#1260
b11001 /
0!
1.
1&
b1 0
b1 2
b1111101 %
1#
#1265
0#
#1270
1!
0&
0.
b0 2
b0 0
b1111110 %
1#
#1275
0#
#1280
b11000 /
0!
1.
1&
b1 0
b1 2
b1111111 %
1#
#1285
0#
#1290
1!
0&
0.
b0 2
b0 0
b10000000 %
1#
#1295
0#
#1300
b10111 /
0!
1.
1&
b1 0
b1 2
b10000001 %
1#
#1305
0#
#1310
1!
0&
0.
b0 2
b0 0
b10000010 %
1#
#1315
0#
#1320
b10110 /
0!
1.
1&
b1 0
b1 2
b10000011 %
1#
#1325
0#
#1330
1!
0&
0.
b0 2
b0 0
b10000100 %
1#
#1335
0#
#1340
b10101 /
0!
1.
1&
b1 0
b1 2
b10000101 %
1#
#1345
0#
#1350
1!
0&
0.
b0 2
b0 0
b10000110 %
1#
#1355
0#
#1360
b10100 /
0!
1.
1&
b1 0
b1 2
b10000111 %
1#
#1365
0#
#1370
1!
0&
0.
b0 2
b0 0
b10001000 %
1#
#1375
0#
#1380
z"
b10011 /
0!
1.
1&
b1 0
b1 2
b10001001 %
1#
#1385
0#
#1390
1!
0&
0.
b0 2
b0 0
b10001010 %
1#
#1395
0#
#1400
0"
b10010 /
0!
1.
1&
b1 0
b1 2
b10001011 %
1#
#1405
0#
#1410
1!
0&
0.
b0 2
b0 0
b10001100 %
1#
#1415
0#
#1420
b10001 /
0!
1.
1&
b1 0
b1 2
b10001101 %
1#
#1425
0#
#1430
1!
0&
0.
b0 2
b0 0
b10001110 %
1#
#1435
0#
#1440
b10000 /
0!
1.
1&
b1 0
b1 2
b10001111 %
1#
#1445
0#
#1450
1!
0&
0.
b0 2
b0 0
b10010000 %
1#
#1455
0#
#1460
b1111 /
0!
1.
1&
b1 0
b1 2
b10010001 %
1#
#1465
0#
#1470
1!
0&
0.
b0 2
b0 0
b10010010 %
1#
#1475
0#
#1480
b1110 /
0!
1.
1&
b1 0
b1 2
b10010011 %
1#
#1485
0#
#1490
1!
0&
0.
b0 2
b0 0
b10010100 %
1#
#1495
0#
#1500
b1101 /
0!
1.
1&
b1 0
b1 2
b10010101 %
1#
#1505
0#
#1510
1!
0&
0.
b0 2
b0 0
b10010110 %
1#
#1515
0#
#1520
b1100 /
0!
1.
1&
b1 0
b1 2
b10010111 %
1#
#1525
0#
#1530
1!
0&
0.
b0 2
b0 0
b10011000 %
1#
#1535
0#
#1540
b1011 /
0!
1.
1&
b1 0
b1 2
b10011001 %
1#
#1545
0#
#1550
1!
0&
0.
b0 2
b0 0
b10011010 %
1#
#1555
0#
#1560
z"
b1010 /
0!
1.
1&
b1 0
b1 2
b10011011 %
1#
#1565
0#
#1570
1!
0&
0.
b0 2
b0 0
b10011100 %
1#
#1575
0#
#1580
0"
b1001 /
0!
1.
1&
b1 0
b1 2
b10011101 %
1#
#1585
0#
#1590
1!
0&
0.
b0 2
b0 0
b10011110 %
1#
#1595
0#
#1600
b1000 /
0!
1.
1&
b1 0
b1 2
b10011111 %
1#
#1605
0#
#1610
1!
0&
0.
b0 2
b0 0
b10100000 %
1#
#1615
0#
#1620
b111 /
0!
1.
1&
b1 0
b1 2
b10100001 %
1#
#1625
0#
#1630
1!
0&
0.
b0 2
b0 0
b10100010 %
1#
#1635
0#
#1640
b110 /
0!
1.
1&
b1 0
b1 2
b10100011 %
1#
#1645
0#
#1650
1!
0&
0.
b0 2
b0 0
b10100100 %
1#
#1655
0#
#1660
b101 /
0!
1.
1&
b1 0
b1 2
b10100101 %
1#
#1665
0#
#1670
1!
0&
0.
b0 2
b0 0
b10100110 %
1#
#1675
0#
#1680
b100 /
0!
1.
1&
b1 0
b1 2
b10100111 %
1#
#1685
0#
#1690
1!
0&
0.
b0 2
b0 0
b10101000 %
1#
#1695
0#
#1700
b11 /
0!
1.
1&
b1 0
b1 2
b10101001 %
1#
#1705
0#
#1710
1!
0&
0.
b0 2
b0 0
b10101010 %
1#
#1715
0#
#1720
b10 /
0!
1.
1&
b1 0
b1 2
b10101011 %
1#
#1725
0#
#1730
1!
0&
0.
b0 2
b0 0
b10101100 %
1#
#1735
0#
#1740
1'
b1 /
0!
1.
1&
b1 0
b1 2
b10101101 %
1#
#1745
0#
#1750
1!
0&
0.
b0 2
b0 0
0'
b0 /
b11 (
0+
b10101110 %
1#
#1755
0#
#1760
0!
1.
1&
b1 0
b1 2
b100 (
b10101111 %
1#
#1765
0#
#1770
1!
0&
0.
b0 2
b0 0
1+
b111 *
b111 -
b10110000 %
1#
#1775
0#
#1780
b11101 /
0!
1.
1&
b1 0
b1 2
b10110001 %
1#
#1785
0#
#1790
1!
0&
0.
b0 2
b0 0
b10110010 %
1#
#1795
0#
#1800
b11100 /
0!
1.
1&
b1 0
b1 2
b10110011 %
1#
#1805
0#
#1810
1!
0&
0.
b0 2
b0 0
b10110100 %
1#
#1815
0#
#1820
b11011 /
0!
1.
1&
b1 0
b1 2
b10110101 %
1#
#1825
0#
#1830
1!
0&
0.
b0 2
b0 0
b10110110 %
1#
#1835
0#
#1840
b11010 /
0!
1.
1&
b1 0
b1 2
b10110111 %
1#
#1845
0#
#1850
1!
0&
0.
b0 2
b0 0
b10111000 %
1#
#1855
0#
#1860
b11001 /
0!
1.
1&
b1 0
b1 2
b10111001 %
1#
#1865
0#
#1870
1!
0&
0.
b0 2
b0 0
b10111010 %
1#
#1875
0#
#1880
b11000 /
0!
1.
1&
b1 0
b1 2
b10111011 %
1#
#1885
0#
#1890
1!
0&
0.
b0 2
b0 0
b10111100 %
1#
#1895
0#
#1900
b10111 /
0!
1.
1&
b1 0
b1 2
b10111101 %
1#
#1905
0#
#1910
1!
0&
0.
b0 2
b0 0
b10111110 %
1#
#1915
0#
#1920
b10110 /
0!
1.
1&
b1 0
b1 2
b10111111 %
1#
#1925
0#
#1930
1!
0&
0.
b0 2
b0 0
b11000000 %
1#
#1935
0#
#1940
b10101 /
0!
1.
1&
b1 0
b1 2
b11000001 %
1#
#1945
0#
#1950
1!
0&
0.
b0 2
b0 0
b11000010 %
1#
#1955
0#
#1960
b10100 /
0!
1.
1&
b1 0
b1 2
b11000011 %
1#
#1965
0#
#1970
1!
0&
0.
b0 2
b0 0
b11000100 %
1#
#1975
0#
#1980
z"
b10011 /
0!
1.
1&
b1 0
b1 2
b11000101 %
1#
#1985
0#
#1990
1!
0&
0.
b0 2
b0 0
b11000110 %
1#
#1995
0#
#2000
0"
b10010 /
0!
1.
1&
b1 0
b1 2
b11000111 %
1#
#2005
0#
#2010
1!
0&
0.
b0 2
b0 0
b11001000 %
1#
#2015
0#
#2020
b10001 /
0!
1.
1&
b1 0
b1 2
b11001001 %
1#
#2025
0#
#2030
1!
0&
0.
b0 2
b0 0
b11001010 %
1#
#2035
0#
#2040
b10000 /
0!
1.
1&
b1 0
b1 2
b11001011 %
1#
#2045
0#
#2050
1!
0&
0.
b0 2
b0 0
b11001100 %
1#
#2055
0#
#2060
b1111 /
0!
1.
1&
b1 0
b1 2
b11001101 %
1#
#2065
0#
#2070
1!
0&
0.
b0 2
b0 0
b11001110 %
1#
#2075
0#
#2080
b1110 /
0!
1.
1&
b1 0
b1 2
b11001111 %
1#
#2085
0#
#2090
1!
0&
0.
b0 2
b0 0
b11010000 %
1#
#2095
0#
#2100
1"
b1101 /
0!
1.
1&
b1 0
b1 2
b11010001 %
1#
#2105
0#
#2110
1!
0&
0.
b0 2
b0 0
b11010010 %
1#
#2115
0#
#2120
b1100 /
0!
1.
1&
b1 0
b1 2
b11010011 %
1#
#2125
0#
#2130
1!
0&
0.
b0 2
b0 0
b11010100 %
1#
#2135
0#
#2140
b1011 /
0!
1.
1&
b1 0
b1 2
b11010101 %
1#
#2145
0#
#2150
1!
0&
0.
b0 2
b0 0
b11010110 %
1#
#2155
0#
#2160
z"
b1010 /
0!
1.
1&
b1 0
b1 2
b11010111 %
1#
#2165
0#
#2170
1!
0&
0.
b0 2
b0 0
b11011000 %
1#
#2175
0#
#2180
0"
b1001 /
0!
1.
1&
b1 0
b1 2
b11011001 %
1#
#2185
0#
#2190
1!
0&
0.
b0 2
b0 0
b11011010 %
1#
#2195
0#
#2200
b1000 /
0!
1.
1&
b1 0
b1 2
b11011011 %
1#
#2205
0#
#2210
1!
0&
0.
b0 2
b0 0
b11011100 %
1#
#2215
0#
#2220
b111 /
0!
1.
1&
b1 0
b1 2
b11011101 %
1#
#2225
0#
#2230
1!
0&
0.
b0 2
b0 0
b11011110 %
1#
#2235
0#
#2240
b110 /
0!
1.
1&
b1 0
b1 2
b11011111 %
1#
#2245
0#
#2250
1!
0&
0.
b0 2
b0 0
b11100000 %
1#
#2255
0#
#2260
b101 /
0!
1.
1&
b1 0
b1 2
b11100001 %
1#
#2265
0#
#2270
1!
0&
0.
b0 2
b0 0
b11100010 %
1#
#2275
0#
#2280
b100 /
0!
1.
1&
b1 0
b1 2
b11100011 %
1#
#2285
0#
#2290
1!
0&
0.
b0 2
b0 0
b11100100 %
1#
#2295
0#
#2300
b11 /
0!
1.
1&
b1 0
b1 2
b11100101 %
1#
#2305
0#
#2310
1!
0&
0.
b0 2
b0 0
b11100110 %
1#
#2315
0#
#2320
b10 /
0!
1.
1&
b1 0
b1 2
b11100111 %
1#
#2325
0#
#2330
1!
0&
0.
b0 2
b0 0
b11101000 %
1#
#2335
0#
#2340
1'
b1 /
0!
1.
1&
b1 0
b1 2
b11101001 %
1#
#2345
0#
#2350
1!
0&
0.
b0 2
b0 0
0'
b0 /
b101 (
0+
b11101010 %
1#
#2355
0#
#2360
b11101 /
0!
1.
1&
b1 0
b1 2
1+
b110 *
b110 -
b11101011 %
1#
#2365
0#
#2370
1!
0&
0.
b0 2
b0 0
b11101100 %
1#
#2375
0#
#2380
b11100 /
0!
1.
1&
b1 0
b1 2
b11101101 %
1#
#2385
0#
#2390
1!
0&
0.
b0 2
b0 0
b11101110 %
1#
#2395
0#
#2400
b11011 /
0!
1.
1&
b1 0
b1 2
b11101111 %
1#
#2405
0#
#2410
1!
0&
0.
b0 2
b0 0
b11110000 %
1#
#2415
0#
#2420
b11010 /
0!
1.
1&
b1 0
b1 2
b11110001 %
1#
#2425
0#
#2430
1!
0&
0.
b0 2
b0 0
b11110010 %
1#
#2435
0#
#2440
b11001 /
0!
1.
1&
b1 0
b1 2
b11110011 %
1#
#2445
0#
#2450
1!
0&
0.
b0 2
b0 0
b11110100 %
1#
#2455
0#
#2460
b11000 /
0!
1.
1&
b1 0
b1 2
b11110101 %
1#
#2465
0#
#2470
1!
0&
0.
b0 2
b0 0
b11110110 %
1#
#2475
0#
#2480
b10111 /
0!
1.
1&
b1 0
b1 2
b11110111 %
1#
#2485
0#
#2490
1!
0&
0.
b0 2
b0 0
b11111000 %
1#
#2495
0#
#2500
b10110 /
0!
1.
1&
b1 0
b1 2
b11111001 %
1#
#2505
0#
#2510
1!
0&
0.
b0 2
b0 0
b11111010 %
1#
#2515
0#
#2520
b10101 /
0!
1.
1&
b1 0
b1 2
b11111011 %
1#
#2525
0#
#2530
1!
0&
0.
b0 2
b0 0
b11111100 %
1#
#2535
0#
#2540
b10100 /
0!
1.
1&
b1 0
b1 2
b11111101 %
1#
#2545
0#
#2550
1!
0&
0.
b0 2
b0 0
b11111110 %
1#
#2555
0#
#2560
z"
b10011 /
0!
1.
1&
b1 0
b1 2
b11111111 %
1#
#2565
0#
#2570
1!
0&
0.
b0 2
b0 0
b100000000 %
1#
#2575
0#
#2580
0"
b10010 /
0!
1.
1&
b1 0
b1 2
b100000001 %
1#
#2585
0#
#2590
1!
0&
0.
b0 2
b0 0
b100000010 %
1#
#2595
0#
#2600
b10001 /
0!
1.
1&
b1 0
b1 2
b100000011 %
1#
#2605
0#
#2610
1!
0&
0.
b0 2
b0 0
b100000100 %
1#
#2615
0#
#2620
b10000 /
0!
1.
1&
b1 0
b1 2
b100000101 %
1#
#2625
0#
#2630
1!
0&
0.
b0 2
b0 0
b100000110 %
1#
#2635
0#
#2640
b1111 /
0!
1.
1&
b1 0
b1 2
b100000111 %
1#
#2645
0#
#2650
1!
0&
0.
b0 2
b0 0
b100001000 %
1#
#2655
0#
#2660
b1110 /
0!
1.
1&
b1 0
b1 2
b100001001 %
1#
#2665
0#
#2670
1!
0&
0.
b0 2
b0 0
b100001010 %
1#
#2675
0#
#2680
1"
b1101 /
0!
1.
1&
b1 0
b1 2
b100001011 %
1#
#2685
0#
#2690
1!
0&
0.
b0 2
b0 0
b100001100 %
1#
#2695
0#
#2700
b1100 /
0!
1.
1&
b1 0
b1 2
b100001101 %
1#
#2705
0#
#2710
1!
0&
0.
b0 2
b0 0
b100001110 %
1#
#2715
0#
#2720
0"
b1011 /
0!
1.
1&
b1 0
b1 2
b100001111 %
1#
#2725
0#
#2730
1!
0&
0.
b0 2
b0 0
b100010000 %
1#
#2735
0#
#2740
z"
b1010 /
0!
1.
1&
b1 0
b1 2
b100010001 %
1#
#2745
0#
#2750
1!
0&
0.
b0 2
b0 0
b100010010 %
1#
#2755
0#
#2760
0"
b1001 /
0!
1.
1&
b1 0
b1 2
b100010011 %
1#
#2765
0#
#2770
1!
0&
0.
b0 2
b0 0
b100010100 %
1#
#2775
0#
#2780
b1000 /
0!
1.
1&
b1 0
b1 2
b100010101 %
1#
#2785
0#
#2790
1!
0&
0.
b0 2
b0 0
b100010110 %
1#
#2795
0#
#2800
b111 /
0!
1.
1&
b1 0
b1 2
b100010111 %
1#
#2805
0#
#2810
1!
0&
0.
b0 2
b0 0
b100011000 %
1#
#2815
0#
#2820
b110 /
0!
1.
1&
b1 0
b1 2
b100011001 %
1#
#2825
0#
#2830
1!
0&
0.
b0 2
b0 0
b100011010 %
1#
#2835
0#
#2840
b101 /
0!
1.
1&
b1 0
b1 2
b100011011 %
1#
#2845
0#
#2850
1!
0&
0.
b0 2
b0 0
b100011100 %
1#
#2855
0#
#2860
b100 /
0!
1.
1&
b1 0
b1 2
b100011101 %
1#
#2865
0#
#2870
1!
0&
0.
b0 2
b0 0
b100011110 %
1#
#2875
0#
#2880
b11 /
0!
1.
1&
b1 0
b1 2
b100011111 %
1#
#2885
0#
#2890
1!
0&
0.
b0 2
b0 0
b100100000 %
1#
#2895
0#
#2900
b10 /
0!
1.
1&
b1 0
b1 2
b100100001 %
1#
#2905
0#
#2910
1!
0&
0.
b0 2
b0 0
b100100010 %
1#
#2915
0#
#2920
1'
b1 /
0!
1.
1&
b1 0
b1 2
b100100011 %
1#
#2925
0#
#2930
1!
0&
0.
b0 2
b0 0
0'
b0 /
b110 (
0+
b100100100 %
1#
#2935
0#
#2940
b11101 /
0!
1.
1&
b1 0
b1 2
1+
b1001 *
b1001 -
b100100101 %
1#
#2945
0#
#2950
1!
0&
0.
b0 2
b0 0
b100100110 %
1#
#2955
0#
#2960
b11100 /
0!
1.
1&
b1 0
b1 2
b100100111 %
1#
#2965
0#
#2970
1!
0&
0.
b0 2
b0 0
b100101000 %
1#
#2975
0#
#2980
b11011 /
0!
1.
1&
b1 0
b1 2
b100101001 %
1#
#2985
0#
#2990
1!
0&
0.
b0 2
b0 0
b100101010 %
1#
#2995
0#
#3000
b11010 /
0!
1.
1&
b1 0
b1 2
b100101011 %
1#
#3005
0#
#3010
1!
0&
0.
b0 2
b0 0
b100101100 %
1#
#3015
0#
#3020
b11001 /
0!
1.
1&
b1 0
b1 2
b100101101 %
1#
#3025
0#
#3030
1!
0&
0.
b0 2
b0 0
b100101110 %
1#
#3035
0#
#3040
b11000 /
0!
1.
1&
b1 0
b1 2
b100101111 %
1#
#3045
0#
#3050
1!
0&
0.
b0 2
b0 0
b100110000 %
1#
#3055
0#
#3060
b10111 /
0!
1.
1&
b1 0
b1 2
b100110001 %
1#
#3065
0#
#3070
1!
0&
0.
b0 2
b0 0
b100110010 %
1#
#3075
0#
#3080
b10110 /
0!
1.
1&
b1 0
b1 2
b100110011 %
1#
#3085
0#
#3090
1!
0&
0.
b0 2
b0 0
b100110100 %
1#
#3095
0#
#3100
b10101 /
0!
1.
1&
b1 0
b1 2
b100110101 %
1#
#3105
0#
#3110
1!
0&
0.
b0 2
b0 0
b100110110 %
1#
#3115
0#
#3120
b10100 /
0!
1.
1&
b1 0
b1 2
b100110111 %
1#
#3125
0#
#3130
1!
0&
0.
b0 2
b0 0
b100111000 %
1#
#3135
0#
#3140
z"
b10011 /
0!
1.
1&
b1 0
b1 2
b100111001 %
1#
#3145
0#
#3150
1!
0&
0.
b0 2
b0 0
b100111010 %
1#
#3155
0#
#3160
0"
b10010 /
0!
1.
1&
b1 0
b1 2
b100111011 %
1#
#3165
0#
#3170
1!
0&
0.
b0 2
b0 0
b100111100 %
1#
#3175
0#
#3180
b10001 /
0!
1.
1&
b1 0
b1 2
b100111101 %
1#
#3185
0#
#3190
1!
0&
0.
b0 2
b0 0
b100111110 %
1#
#3195
0#
#3200
b10000 /
0!
1.
1&
b1 0
b1 2
b100111111 %
1#
#3205
0#
#3210
1!
0&
0.
b0 2
b0 0
b101000000 %
1#
#3215
0#
#3220
b1111 /
0!
1.
1&
b1 0
b1 2
b101000001 %
1#
#3225
0#
#3230
1!
0&
0.
b0 2
b0 0
b101000010 %
1#
#3235
0#
#3240
1"
b1110 /
0!
1.
1&
b1 0
b1 2
b101000011 %
1#
#3245
0#
#3250
1!
0&
0.
b0 2
b0 0
b101000100 %
1#
#3255
0#
#3260
0"
b1101 /
0!
1.
1&
b1 0
b1 2
b101000101 %
1#
#3265
0#
#3270
1!
0&
0.
b0 2
b0 0
b101000110 %
1#
#3275
0#
